<?xml version="1.0"?>
<VTKFile type="PolyData" version="0.1" byte_order="LittleEndian">
  <PolyData>
    <Piece NumberOfPoints="     19" NumberOfVerts="  0" NumberOfLines="     18"
           NumberOfStrips="  0" NumberOfPolys="      0">
      <Points>
        <DataArray type="Float32" NumberOfComponents="3" format="ascii">
                      -5.11052                      -1.40540                      89.48753
                      -5.21225                      -2.68461                      89.01719
                      -5.44411                      -5.20872                      87.98902
                      -5.68786                      -7.71614                      86.91807
                      -5.99696                     -10.83978                      85.55171
                      -6.29611                     -14.63848                      84.03503
                      -6.54995                     -18.48204                      82.63096
                      -6.79172                     -22.32501                      81.22286
                      -7.01541                     -26.16824                      79.81213
                      -7.21841                     -30.01116                      78.39719
                      -7.39890                     -33.85258                      76.97500
                      -7.55287                     -37.69314                      75.54726
                      -7.67834                     -41.53291                      74.11445
                      -7.77413                     -45.37189                      72.67706
                      -7.83751                     -49.20992                      71.23527
                      -7.86496                     -52.40742                      70.03065
                      -7.87123                     -54.96750                      69.07256
                      -7.86102                     -57.54658                      68.16419
                      -7.85520                     -58.82078                      67.67076
        </DataArray>
      </Points>
      <PointData>
        <DataArray type="Float32" Name="TranslationalVelocity" NumberOfComponents="3" format="ascii">
                      -0.06414                       0.27235                      -0.73307
                      -0.12250                       0.52230                      -1.40026
                      -0.23765                       1.06902                      -2.71654
                      -0.35201                       1.63843                      -4.02378
                      -0.49441                       2.36453                      -5.65176
                      -0.66746                       3.16809                      -7.63073
                      -0.84244                       3.91054                      -9.63209
                      -1.01737                       4.65418                     -11.63214
                      -1.19238                       5.39804                     -13.63138
                      -1.36760                       6.14285                     -15.62957
                      -1.54313                       6.89015                     -17.62619
                      -1.71921                       7.63890                     -19.62167
                      -1.89605                       8.38880                     -21.61615
                      -2.07386                       9.13956                     -23.60971
                      -2.25288                       9.89098                     -25.60234
                      -2.40315                      10.51750                     -27.26210
                      -2.52427                      11.01502                     -28.59078
                      -2.64709                      11.48588                     -29.92914
                      -2.70807                      11.74162                     -30.59027
        </DataArray>
        <DataArray type="Float32" Name="RotationalVelocity" NumberOfComponents="3" format="ascii">
                       0.52161                      -0.00000                      -0.04563
                       0.52157                       0.00000                      -0.04563
                       0.52146                       0.00000                      -0.04562
                       0.52132                      -0.00000                      -0.04560
                       0.52112                      -0.00001                      -0.04559
                       0.52087                      -0.00004                      -0.04557
                       0.52061                      -0.00008                      -0.04557
                       0.52036                      -0.00014                      -0.04560
                       0.52013                      -0.00021                      -0.04566
                       0.51992                      -0.00028                      -0.04576
                       0.51973                      -0.00035                      -0.04591
                       0.51957                      -0.00041                      -0.04611
                       0.51942                      -0.00045                      -0.04636
                       0.51929                      -0.00044                      -0.04665
                       0.51918                      -0.00039                      -0.04697
                       0.51911                      -0.00031                      -0.04724
                       0.51905                      -0.00020                      -0.04746
                       0.51901                      -0.00005                      -0.04766
                       0.51900                       0.00004                      -0.04775
        </DataArray>
        <DataArray type="Float32" Name="TranslationalAcceleration" NumberOfComponents="3" format="ascii">
                       0.01243                       0.38530                       0.14206
                       0.01517                       0.46539                       0.17301
                       0.04564                       1.32123                       0.52139
                       0.07513                       2.10080                       0.85847
                       0.11107                       3.00319                       1.26753
                       0.15009                       4.03630                       1.70898
                       0.18624                       5.04967                       2.11798
                       0.22273                       6.05487                       2.53641
                       0.25932                       7.06522                       2.96850
                       0.29543                       8.08491                       3.41583
                       0.33025                       9.11172                       3.87768
                       0.36276                      10.14025                       4.35047
                       0.39197                      11.16373                       4.83033
                       0.41711                      12.17666                       5.31377
                       0.43772                      13.17728                       5.79878
                       0.45138                      14.00465                       6.20433
                       0.46010                      14.66787                       6.52881
                       0.46578                      15.34464                       6.84381
                       0.46949                      15.68305                       7.01373
        </DataArray>
        <DataArray type="Float32" Name="OrientationX" NumberOfComponents="3" format="ascii">
                       0.99393                      -0.04091                      -0.10216
                       0.99394                      -0.04071                      -0.10209
                       0.99399                      -0.04008                      -0.10188
                       0.99406                      -0.03916                      -0.10157
                       0.99417                      -0.03763                      -0.10109
                       0.99432                      -0.03524                      -0.10038
                       0.99451                      -0.03220                      -0.09952
                       0.99474                      -0.02847                      -0.09844
                       0.99499                      -0.02399                      -0.09708
                       0.99526                      -0.01873                      -0.09538
                       0.99556                      -0.01268                      -0.09329
                       0.99585                      -0.00593                      -0.09078
                       0.99613                       0.00137                      -0.08787
                       0.99637                       0.00896                      -0.08464
                       0.99656                       0.01644                      -0.08127
                       0.99667                       0.02222                      -0.07850
                       0.99673                       0.02625                      -0.07646
                       0.99677                       0.02948                      -0.07473
                       0.99678                       0.03071                      -0.07402
        </DataArray>
        <DataArray type="Float32" Name="OrientationY" NumberOfComponents="3" format="ascii">
                       0.08174                      -0.34710                       0.93426
                       0.08173                      -0.34730                       0.93419
                       0.08170                      -0.34783                       0.93399
                       0.08168                      -0.34851                       0.93374
                       0.08168                      -0.34948                       0.93338
                       0.08175                      -0.35073                       0.93290
                       0.08190                      -0.35199                       0.93241
                       0.08211                      -0.35320                       0.93194
                       0.08234                      -0.35430                       0.93150
                       0.08255                      -0.35529                       0.93111
                       0.08268                      -0.35615                       0.93077
                       0.08269                      -0.35688                       0.93048
                       0.08255                      -0.35751                       0.93026
                       0.08223                      -0.35803                       0.93008
                       0.08175                      -0.35846                       0.92996
                       0.08124                      -0.35874                       0.92989
                       0.08079                      -0.35892                       0.92987
                       0.08033                      -0.35903                       0.92986
                       0.08011                      -0.35906                       0.92987
        </DataArray>
        <DataArray type="Float32" Name="OrientationZ" NumberOfComponents="3" format="ascii">
                      -0.07368                      -0.93694                      -0.34165
                      -0.07348                      -0.93687                      -0.34187
                      -0.07287                      -0.93670                      -0.34247
                      -0.07196                      -0.93649                      -0.34324
                      -0.07046                      -0.93619                      -0.34436
                      -0.06808                      -0.93581                      -0.34586
                      -0.06505                      -0.93545                      -0.34742
                      -0.06130                      -0.93512                      -0.34900
                      -0.05675                      -0.93482                      -0.35055
                      -0.05133                      -0.93457                      -0.35206
                      -0.04503                      -0.93434                      -0.35352
                      -0.03792                      -0.93413                      -0.35491
                      -0.03014                      -0.93391                      -0.35624
                      -0.02197                      -0.93367                      -0.35747
                      -0.01384                      -0.93340                      -0.35857
                      -0.00750                      -0.93317                      -0.35935
                      -0.00303                      -0.93300                      -0.35986
                       0.00059                      -0.93286                      -0.36024
                       0.00198                      -0.93281                      -0.36036
        </DataArray>
        <DataArray type="Float32" Name="Force" NumberOfComponents="3" format="ascii">
                       0.27609                      -1.17242                       3.15572
                     155.82255                     -17.74748                      15.16251
                     180.24663                     -28.44409                      39.58660
                     146.25604                     -28.10247                      46.29468
                    1238.93309                      -2.58457                    -247.40397
                    1232.42634                      -5.91868                    -227.82364
                    1367.39791                      -2.56132                    -250.97393
                    1251.91979                      -2.06418                    -216.21455
                    1156.74049                      -4.09379                    -177.87190
                    1223.85637                       3.29834                    -189.11232
                    1214.11395                      14.70787                    -195.95727
                    1368.08487                      48.63265                    -279.04073
                    1593.94001                      92.21551                    -384.76414
                    1844.46713                     134.39831                    -475.54494
                    1998.29336                     164.31255                    -517.68121
                    2073.61517                     182.22793                    -529.95675
                    2018.42217                     183.26868                    -505.16726
                    1485.68468                     138.23891                    -365.02159
                     442.36785                      11.63830                     -27.47088
        </DataArray>
        <DataArray type="Float32" Name="Moment" NumberOfComponents="3" format="ascii">
                       0.00000                       0.00000                       0.00000
                       0.00000                       0.00000                       0.00000
                       0.00000                       0.00000                       0.00000
                       0.00000                       0.00000                       0.00000
                      53.40209                     712.34741                     259.98167
                      56.39841                     779.93188                     284.82874
                      53.36500                     773.90223                     282.85397
                      51.24262                     790.37072                     289.15808
                      45.84570                     765.84536                     280.51851
                      39.33175                     728.58733                     267.24617
                      28.33311                     600.48997                     220.61726
                      21.58980                     546.24112                     201.05251
                      16.10599                     516.70428                     190.55865
                       9.55811                     426.40092                     157.58170
                       5.18627                     378.27604                     140.08467
                       2.39198                     345.82294                     128.27205
                       0.64803                     302.90254                     112.47869
                      -0.27047                     156.37725                      58.12147
                      -0.43239                     134.27849                      49.92543
        </DataArray>
      </PointData>
      <Lines>
        <DataArray type="Int32" Name="connectivity" format="ascii">
      0      1
      1      2
      2      3
      3      4
      4      5
      5      6
      6      7
      7      8
      8      9
      9     10
     10     11
     11     12
     12     13
     13     14
     14     15
     15     16
     16     17
     17     18
        </DataArray>
        <DataArray type="Int32" Name="offsets" format="ascii">
      2
      4
      6
      8
     10
     12
     14
     16
     18
     20
     22
     24
     26
     28
     30
     32
     34
     36
        </DataArray>
      </Lines>
    </Piece>
  </PolyData>
</VTKFile>
