<?xml version="1.0"?>
<VTKFile type="PolyData" version="0.1" byte_order="LittleEndian">
  <PolyData>
    <Piece NumberOfPoints="     19" NumberOfVerts="  0" NumberOfLines="     18"
           NumberOfStrips="  0" NumberOfPolys="      0">
      <Points>
        <DataArray type="Float32" NumberOfComponents="3" format="ascii">
                      -5.06279                      -1.49832                      90.03306
                      -5.12106                      -2.86354                      90.05952
                      -5.26656                      -5.59468                      90.01859
                      -5.42421                      -8.32615                      89.93171
                      -5.62586                     -11.74075                      89.79336
                      -5.79525                     -15.83825                      89.75953
                      -5.91860                     -19.93526                      89.84641
                      -6.02982                     -24.03280                      89.92901
                      -6.12283                     -28.13096                      90.00893
                      -6.19497                     -32.22972                      90.08449
                      -6.24437                     -36.32900                      90.15244
                      -6.26693                     -40.42865                      90.21459
                      -6.26061                     -44.52850                      90.27143
                      -6.22414                     -48.62831                      90.32340
                      -6.15472                     -52.72780                      90.37062
                      -6.07104                     -56.14355                      90.40649
                      -5.98805                     -58.87554                      90.44100
                      -5.88797                     -61.60667                      90.52857
                      -5.83736                     -62.97214                      90.53018
        </DataArray>
      </Points>
      <PointData>
        <DataArray type="Float32" Name="TranslationalVelocity" NumberOfComponents="3" format="ascii">
                      -0.06838                      -0.01438                      -0.78153
                      -0.13067                      -0.02553                      -1.49362
                      -0.25526                       0.00243                      -2.91804
                      -0.37982                       0.05488                      -4.34243
                      -0.53544                       0.13612                      -6.12271
                      -0.72200                       0.16132                      -8.25846
                      -0.90833                       0.12150                     -10.39324
                      -1.09446                       0.08336                     -12.52757
                      -1.28042                       0.04581                     -14.66149
                      -1.46622                       0.00960                     -16.79498
                      -1.65193                      -0.02367                     -18.92804
                      -1.83762                      -0.05511                     -21.06066
                      -2.02339                      -0.08508                     -23.19279
                      -2.20934                      -0.11387                     -25.32439
                      -2.39561                      -0.14167                     -27.45538
                      -2.55121                      -0.16419                     -29.23064
                      -2.67600                      -0.18595                     -30.65037
                      -2.80116                      -0.23605                     -32.06953
                      -2.86385                      -0.23921                     -32.77902
        </DataArray>
        <DataArray type="Float32" Name="RotationalVelocity" NumberOfComponents="3" format="ascii">
                       0.52161                      -0.00000                      -0.04563
                       0.52159                       0.00000                      -0.04563
                       0.52153                      -0.00000                      -0.04562
                       0.52145                      -0.00000                      -0.04560
                       0.52133                      -0.00001                      -0.04556
                       0.52117                      -0.00004                      -0.04552
                       0.52100                      -0.00008                      -0.04547
                       0.52082                      -0.00014                      -0.04541
                       0.52065                      -0.00023                      -0.04537
                       0.52049                      -0.00033                      -0.04533
                       0.52034                      -0.00045                      -0.04531
                       0.52020                      -0.00059                      -0.04531
                       0.52007                      -0.00073                      -0.04534
                       0.51996                      -0.00085                      -0.04540
                       0.51987                      -0.00094                      -0.04549
                       0.51980                      -0.00098                      -0.04560
                       0.51976                      -0.00098                      -0.04570
                       0.51973                      -0.00093                      -0.04582
                       0.51972                      -0.00089                      -0.04589
        </DataArray>
        <DataArray type="Float32" Name="TranslationalAcceleration" NumberOfComponents="3" format="ascii">
                      -0.00066                       0.41077                      -0.00750
                      -0.00070                       0.49671                      -0.00785
                       0.00026                       1.42136                       0.00520
                       0.00242                       2.27114                       0.03440
                       0.00587                       3.26226                       0.08381
                       0.00661                       4.38763                       0.11224
                       0.00398                       5.48286                       0.11421
                       0.00079                       6.57414                       0.12447
                      -0.00326                       7.67529                       0.14234
                      -0.00836                       8.79069                       0.16801
                      -0.01457                       9.91792                       0.20207
                      -0.02206                      11.05057                       0.24355
                      -0.03082                      12.18086                       0.29179
                      -0.04078                      13.30241                       0.34599
                      -0.05168                      14.41289                       0.40529
                      -0.06120                      15.33270                       0.45791
                      -0.06914                      16.06977                       0.49937
                      -0.07875                      16.81570                       0.52691
                      -0.08200                      17.19362                       0.55219
        </DataArray>
        <DataArray type="Float32" Name="OrientationX" NumberOfComponents="3" format="ascii">
                       0.99532                      -0.04361                      -0.08628
                       0.99532                      -0.04340                      -0.08629
                       0.99535                      -0.04274                      -0.08632
                       0.99539                      -0.04177                      -0.08637
                       0.99544                      -0.04017                      -0.08648
                       0.99552                      -0.03767                      -0.08670
                       0.99561                      -0.03450                      -0.08702
                       0.99570                      -0.03061                      -0.08739
                       0.99580                      -0.02590                      -0.08779
                       0.99590                      -0.02032                      -0.08816
                       0.99598                      -0.01385                      -0.08845
                       0.99604                      -0.00655                      -0.08861
                       0.99607                       0.00143                      -0.08861
                       0.99604                       0.00980                      -0.08841
                       0.99595                       0.01814                      -0.08801
                       0.99586                       0.02465                      -0.08755
                       0.99577                       0.02925                      -0.08710
                       0.99569                       0.03298                      -0.08663
                       0.99567                       0.03443                      -0.08639
        </DataArray>
        <DataArray type="Float32" Name="OrientationY" NumberOfComponents="3" format="ascii">
                       0.08714                       0.01832                       0.99603
                       0.08714                       0.01810                       0.99603
                       0.08713                       0.01750                       0.99604
                       0.08713                       0.01675                       0.99606
                       0.08717                       0.01567                       0.99607
                       0.08729                       0.01428                       0.99608
                       0.08750                       0.01287                       0.99608
                       0.08778                       0.01153                       0.99607
                       0.08808                       0.01030                       0.99606
                       0.08836                       0.00921                       0.99605
                       0.08857                       0.00826                       0.99604
                       0.08866                       0.00745                       0.99603
                       0.08860                       0.00675                       0.99604
                       0.08835                       0.00618                       0.99607
                       0.08792                       0.00570                       0.99611
                       0.08744                       0.00538                       0.99616
                       0.08699                       0.00519                       0.99620
                       0.08651                       0.00506                       0.99624
                       0.08626                       0.00503                       0.99626
        </DataArray>
        <DataArray type="Float32" Name="OrientationZ" NumberOfComponents="3" format="ascii">
                      -0.04186                      -0.99888                       0.02204
                      -0.04167                      -0.99889                       0.02180
                      -0.04106                      -0.99893                       0.02115
                      -0.04016                      -0.99899                       0.02031
                      -0.03865                      -0.99907                       0.01910
                      -0.03628                      -0.99919                       0.01750
                      -0.03325                      -0.99932                       0.01584
                      -0.02948                      -0.99946                       0.01417
                      -0.02489                      -0.99961                       0.01254
                      -0.01943                      -0.99975                       0.01097
                      -0.01306                      -0.99987                       0.00945
                      -0.00586                      -0.99995                       0.00800
                       0.00202                      -0.99998                       0.00660
                       0.01031                      -0.99993                       0.00529
                       0.01857                      -0.99982                       0.00408
                       0.02503                      -0.99968                       0.00320
                       0.02959                      -0.99956                       0.00262
                       0.03329                      -0.99944                       0.00219
                       0.03473                      -0.99939                       0.00204
        </DataArray>
        <DataArray type="Float32" Name="Force" NumberOfComponents="3" format="ascii">
                       0.31670                       0.06660                       3.61991
                     160.46190                      -6.25096                      19.93388
                     181.86498                      -6.50543                      43.50692
                     144.83445                      -4.68595                      50.95645
                    1232.49712                     -52.52760                    -235.59692
                    1241.26522                     -49.35437                    -218.92129
                    1386.92182                     -50.68351                    -244.19386
                    1277.90044                     -41.38707                    -212.36909
                    1185.54682                     -32.28407                    -174.61941
                    1258.02522                     -27.23281                    -188.75378
                    1233.11576                     -18.62029                    -184.19447
                    1379.36357                     -11.85907                    -269.53511
                    1586.53186                      -2.28925                    -391.07798
                    1828.28075                      12.26108                    -489.47691
                    2011.89136                      30.26191                    -558.56977
                    2097.02765                      45.47954                    -583.02271
                    2069.16681                      54.64035                    -571.46771
                    1508.24406                      45.68266                    -409.82107
                     443.23485                      15.42092                     -32.51094
        </DataArray>
        <DataArray type="Float32" Name="Moment" NumberOfComponents="3" format="ascii">
                       0.00000                       0.00000                       0.00000
                       0.00000                       0.00000                       0.00000
                       0.00000                       0.00000                       0.00000
                       0.00000                       0.00000                       0.00000
                      29.03643                     755.00071                     -16.43088
                      30.10264                     837.07743                     -18.03421
                      27.50192                     838.49066                     -17.83267
                      24.95291                     863.15492                     -18.06344
                      20.36274                     841.10313                     -17.25614
                      15.00328                     804.80548                     -16.11944
                       8.15817                     669.10424                     -13.02394
                       3.01443                     612.89536                     -11.53979
                      -1.74861                     577.69320                     -10.47543
                      -5.43909                     478.55147                      -8.32854
                      -8.50154                     432.17266                      -7.20733
                      -9.79931                     374.50195                      -6.03277
                     -10.22098                     332.44102                      -5.22204
                      -5.72598                     166.12265                      -2.55537
                      -5.17806                     144.19242                      -2.19983
        </DataArray>
      </PointData>
      <Lines>
        <DataArray type="Int32" Name="connectivity" format="ascii">
      0      1
      1      2
      2      3
      3      4
      4      5
      5      6
      6      7
      7      8
      8      9
      9     10
     10     11
     11     12
     12     13
     13     14
     14     15
     15     16
     16     17
     17     18
        </DataArray>
        <DataArray type="Int32" Name="offsets" format="ascii">
      2
      4
      6
      8
     10
     12
     14
     16
     18
     20
     22
     24
     26
     28
     30
     32
     34
     36
        </DataArray>
      </Lines>
    </Piece>
  </PolyData>
</VTKFile>
