<?xml version="1.0"?>
<VTKFile type="PolyData" version="0.1" byte_order="LittleEndian">
  <PolyData>
    <Piece NumberOfPoints="     19" NumberOfVerts="  0" NumberOfLines="     18"
           NumberOfStrips="  0" NumberOfPolys="      0">
      <Points>
        <DataArray type="Float32" NumberOfComponents="3" format="ascii">
                      -4.93865                      -0.37154                      91.45197
                      -4.88358                      -0.71346                      92.77406
                      -4.79627                      -1.48913                      95.39560
                      -4.71820                      -2.30865                      98.00629
                      -4.62346                      -3.35985                     101.26303
                      -4.44643                      -4.48462                     105.20333
                      -4.23196                      -5.48531                     109.17377
                      -4.00592                      -6.48516                     113.14381
                      -3.76254                      -7.48241                     117.11354
                      -3.49926                      -8.47882                     121.08222
                      -3.21413                      -9.47779                     125.04872
                      -2.90333                     -10.47774                     129.01303
                      -2.56489                     -11.47849                     132.97487
                      -2.19755                     -12.47990                     136.93399
                      -1.79843                     -13.48191                     140.88990
                      -1.44077                     -14.31727                     144.18378
                      -1.13946                     -14.97805                     146.81899
                      -0.82484                     -15.58570                     149.46638
                      -0.66426                     -15.92988                     150.77897
        </DataArray>
      </Points>
      <PointData>
        <DataArray type="Float32" Name="TranslationalVelocity" NumberOfComponents="3" format="ascii">
                      -0.01696                      -0.76015                      -0.19380
                      -0.03256                      -1.45240                      -0.37218
                      -0.06796                      -2.82452                      -0.77698
                      -0.10535                      -4.19126                      -1.20492
                      -0.15332                      -5.89720                      -1.75426
                      -0.20464                      -7.96576                      -2.34266
                      -0.25023                     -10.05373                      -2.86669
                      -0.29567                     -12.14391                      -3.39073
                      -0.34078                     -14.23645                      -3.91382
                      -0.38555                     -16.33088                      -4.43682
                      -0.43004                     -18.42643                      -4.96150
                      -0.47408                     -20.52304                      -5.48695
                      -0.51757                     -22.62040                      -6.01306
                      -0.56044                     -24.71823                      -6.53972
                      -0.60265                     -26.81628                      -7.06688
                      -0.63728                     -28.56468                      -7.50653
                      -0.66430                     -29.96437                      -7.85442
                      -0.68858                     -31.37130                      -8.17448
                      -0.70248                     -32.06918                      -8.35578
        </DataArray>
        <DataArray type="Float32" Name="RotationalVelocity" NumberOfComponents="3" format="ascii">
                       0.52161                      -0.00000                      -0.04563
                       0.52169                       0.00000                      -0.04564
                       0.52191                       0.00001                      -0.04565
                       0.52219                       0.00001                      -0.04567
                       0.52258                       0.00003                      -0.04571
                       0.52306                       0.00006                      -0.04576
                       0.52354                       0.00010                      -0.04584
                       0.52398                       0.00016                      -0.04593
                       0.52436                       0.00024                      -0.04601
                       0.52470                       0.00034                      -0.04609
                       0.52497                       0.00046                      -0.04614
                       0.52520                       0.00060                      -0.04616
                       0.52538                       0.00075                      -0.04615
                       0.52554                       0.00091                      -0.04609
                       0.52567                       0.00106                      -0.04599
                       0.52576                       0.00117                      -0.04588
                       0.52582                       0.00124                      -0.04578
                       0.52587                       0.00130                      -0.04567
                       0.52589                       0.00131                      -0.04561
        </DataArray>
        <DataArray type="Float32" Name="TranslationalAcceleration" NumberOfComponents="3" format="ascii">
                      -0.03469                       0.10186                      -0.39650
                      -0.04192                       0.12373                      -0.47944
                      -0.11955                       0.37675                      -1.36659
                      -0.19078                       0.61926                      -2.18096
                      -0.27400                       0.90518                      -3.13335
                      -0.36998                       1.18271                      -4.23095
                      -0.46520                       1.40325                      -5.31426
                      -0.56178                       1.60620                      -6.40052
                      -0.66152                       1.79420                      -7.50283
                      -0.76537                       1.96908                      -8.62490
                      -0.87352                       2.13200                      -9.76372
                      -0.98553                       2.28214                     -10.91251
                      -1.10043                       2.41913                     -12.06310
                      -1.21683                       2.54324                     -13.20864
                      -1.33300                       2.65599                     -14.34628
                      -1.42818                       2.74347                     -15.29076
                      -1.50239                       2.80933                     -16.04858
                      -1.57438                       2.86046                     -16.81643
                      -1.60922                       2.89885                     -17.20493
        </DataArray>
        <DataArray type="Float32" Name="OrientationX" NumberOfComponents="3" format="ascii">
                       0.99893                      -0.01081                      -0.04498
                       0.99892                      -0.01077                      -0.04517
                       0.99890                      -0.01062                      -0.04577
                       0.99886                      -0.01041                      -0.04665
                       0.99879                      -0.01007                      -0.04811
                       0.99868                      -0.00957                      -0.05040
                       0.99854                      -0.00895                      -0.05331
                       0.99835                      -0.00818                      -0.05689
                       0.99810                      -0.00722                      -0.06122
                       0.99778                      -0.00603                      -0.06636
                       0.99737                      -0.00458                      -0.07231
                       0.99687                      -0.00285                      -0.07901
                       0.99627                      -0.00086                      -0.08634
                       0.99557                       0.00136                      -0.09402
                       0.99481                       0.00371                      -0.10168
                       0.99417                       0.00566                      -0.10768
                       0.99369                       0.00714                      -0.11193
                       0.99328                       0.00847                      -0.11540
                       0.99312                       0.00904                      -0.11676
        </DataArray>
        <DataArray type="Float32" Name="OrientationY" NumberOfComponents="3" format="ascii">
                       0.02161                       0.96878                       0.24699
                       0.02161                       0.96876                       0.24704
                       0.02163                       0.96872                       0.24720
                       0.02165                       0.96867                       0.24739
                       0.02170                       0.96860                       0.24767
                       0.02180                       0.96851                       0.24803
                       0.02194                       0.96841                       0.24839
                       0.02211                       0.96832                       0.24875
                       0.02228                       0.96823                       0.24908
                       0.02244                       0.96814                       0.24938
                       0.02255                       0.96807                       0.24966
                       0.02258                       0.96800                       0.24992
                       0.02251                       0.96794                       0.25016
                       0.02232                       0.96789                       0.25039
                       0.02200                       0.96784                       0.25059
                       0.02164                       0.96781                       0.25075
                       0.02130                       0.96779                       0.25085
                       0.02091                       0.96778                       0.25094
                       0.02070                       0.96777                       0.25097
        </DataArray>
        <DataArray type="Float32" Name="OrientationZ" NumberOfComponents="3" format="ascii">
                       0.04090                      -0.24769                       0.96797
                       0.04110                      -0.24775                       0.96795
                       0.04171                      -0.24791                       0.96788
                       0.04262                      -0.24812                       0.96779
                       0.04411                      -0.24841                       0.96765
                       0.04644                      -0.24880                       0.96744
                       0.04940                      -0.24920                       0.96719
                       0.05305                      -0.24959                       0.96690
                       0.05748                      -0.24997                       0.96655
                       0.06274                      -0.25032                       0.96613
                       0.06885                      -0.25064                       0.96563
                       0.07577                      -0.25092                       0.96504
                       0.08336                      -0.25117                       0.96435
                       0.09135                      -0.25138                       0.96357
                       0.09934                      -0.25153                       0.96274
                       0.10564                      -0.25162                       0.96205
                       0.11011                      -0.25165                       0.96153
                       0.11381                      -0.25166                       0.96110
                       0.11527                      -0.25166                       0.96093
        </DataArray>
        <DataArray type="Float32" Name="Force" NumberOfComponents="3" format="ascii">
                       0.02559                       1.14710                       0.29245
                     159.77471                      20.83260                      -1.45254
                     180.38389                      43.87333                       3.45315
                     143.14246                      50.72530                       6.67805
                    1206.53377                    -132.02524                     -88.80223
                    1239.89200                    -117.48790                     -89.61418
                    1403.89230                    -132.88638                    -105.75809
                    1300.56309                    -108.11364                     -99.07834
                    1217.87562                     -77.94376                     -92.41974
                    1299.28969                     -82.61447                    -105.57541
                    1240.66140                     -51.74540                    -101.75319
                    1334.46761                     -82.84486                    -126.05434
                    1457.82757                    -181.60490                    -172.66098
                    1655.59433                    -243.21116                    -219.45624
                    1856.32467                    -300.95458                    -268.93970
                    2022.02521                    -350.63194                    -312.22894
                    2034.66962                    -356.24190                    -324.68145
                    1520.96099                    -263.87023                    -248.02301
                     433.20019                       9.47580                     -49.50938
        </DataArray>
        <DataArray type="Float32" Name="Moment" NumberOfComponents="3" format="ascii">
                       0.00000                       0.00000                       0.00000
                       0.00000                       0.00000                       0.00000
                       0.00000                       0.00000                       0.00000
                       0.00000                       0.00000                       0.00000
                     -34.72600                     194.95704                    -761.66270
                     -40.50756                     215.97976                    -843.61653
                     -43.29856                     217.02195                    -847.46028
                     -47.83043                     223.23860                    -871.44802
                     -50.77475                     218.74819                    -853.57718
                     -53.40665                     210.81450                    -822.22776
                     -49.62292                     178.50313                    -695.82048
                     -50.92814                     166.48449                    -648.56427
                     -51.92937                     154.32217                    -600.77110
                     -51.80912                     140.49813                    -546.55812
                     -48.18071                     120.13308                    -466.99557
                     -43.33515                     101.60497                    -394.74469
                     -38.52970                      86.65701                    -336.53313
                     -18.63891                      40.55632                    -157.44771
                     -16.18656                      34.77230                    -134.97495
        </DataArray>
      </PointData>
      <Lines>
        <DataArray type="Int32" Name="connectivity" format="ascii">
      0      1
      1      2
      2      3
      3      4
      4      5
      5      6
      6      7
      7      8
      8      9
      9     10
     10     11
     11     12
     12     13
     13     14
     14     15
     15     16
     16     17
     17     18
        </DataArray>
        <DataArray type="Int32" Name="offsets" format="ascii">
      2
      4
      6
      8
     10
     12
     14
     16
     18
     20
     22
     24
     26
     28
     30
     32
     34
     36
        </DataArray>
      </Lines>
    </Piece>
  </PolyData>
</VTKFile>
