<?xml version="1.0"?>
<VTKFile type="PolyData" version="0.1" byte_order="LittleEndian">
  <PolyData>
    <Piece NumberOfPoints="     19" NumberOfVerts="  0" NumberOfLines="     18"
           NumberOfStrips="  0" NumberOfPolys="      0">
      <Points>
        <DataArray type="Float32" NumberOfComponents="3" format="ascii">
                      -5.06556                      -1.49857                      90.00141
                      -5.12635                      -2.86393                      89.99902
                      -5.27689                      -5.59332                      89.90042
                      -5.43957                      -8.32206                      89.75589
                      -5.64750                     -11.73261                      89.54548
                      -5.82442                     -15.82817                      89.42520
                      -5.95525                     -19.92587                      89.42564
                      -6.07391                     -24.02404                      89.42184
                      -6.17432                     -28.12282                      89.41538
                      -6.25383                     -32.22213                      89.40459
                      -6.31054                     -36.32184                      89.38623
                      -6.34038                     -40.42185                      89.36209
                      -6.34128                     -44.52199                      89.33266
                      -6.31201                     -48.62206                      89.29839
                      -6.24977                     -52.72175                      89.25941
                      -6.17208                     -56.13764                      89.22347
                      -6.09388                     -58.86989                      89.20055
                      -5.99859                     -61.60244                      89.23070
                      -5.95040                     -62.96772                      89.20362
        </DataArray>
      </Points>
      <PointData>
        <DataArray type="Float32" Name="TranslationalVelocity" NumberOfComponents="3" format="ascii">
                      -0.06839                       0.00226                      -0.78166
                      -0.13068                       0.00627                      -1.49378
                      -0.25517                       0.06451                      -2.91690
                      -0.37954                       0.14718                      -4.33902
                      -0.53482                       0.26606                      -6.11530
                      -0.72100                       0.33636                      -8.24641
                      -0.90696                       0.34167                     -10.37631
                      -1.09263                       0.34864                     -12.50397
                      -1.27805                       0.35616                     -14.62944
                      -1.46331                       0.36501                     -16.75273
                      -1.64849                       0.37677                     -18.87389
                      -1.83370                       0.39032                     -20.99308
                      -2.01908                       0.40532                     -23.11041
                      -2.20476                       0.42146                     -25.22605
                      -2.39088                       0.43857                     -27.34011
                      -2.54643                       0.45345                     -29.10069
                      -2.67124                       0.46163                     -30.50849
                      -2.79656                       0.44169                     -31.91613
                      -2.85923                       0.45343                     -32.61936
        </DataArray>
        <DataArray type="Float32" Name="RotationalVelocity" NumberOfComponents="3" format="ascii">
                       0.52161                      -0.00000                      -0.04563
                       0.52154                       0.00000                      -0.04563
                       0.52134                       0.00000                      -0.04560
                       0.52108                      -0.00001                      -0.04557
                       0.52068                      -0.00003                      -0.04552
                       0.52014                      -0.00010                      -0.04545
                       0.51956                      -0.00021                      -0.04537
                       0.51898                      -0.00037                      -0.04531
                       0.51840                      -0.00058                      -0.04526
                       0.51786                      -0.00083                      -0.04523
                       0.51735                      -0.00112                      -0.04523
                       0.51688                      -0.00143                      -0.04525
                       0.51647                      -0.00174                      -0.04531
                       0.51611                      -0.00201                      -0.04540
                       0.51582                      -0.00222                      -0.04552
                       0.51563                      -0.00231                      -0.04564
                       0.51552                      -0.00231                      -0.04575
                       0.51545                      -0.00222                      -0.04586
                       0.51544                      -0.00214                      -0.04592
        </DataArray>
        <DataArray type="Float32" Name="TranslationalAcceleration" NumberOfComponents="3" format="ascii">
                       0.00010                       0.41084                       0.00118
                       0.00020                       0.49672                       0.00260
                       0.00270                       1.42051                       0.03472
                       0.00601                       2.26867                       0.08080
                       0.01024                       3.25684                       0.14877
                       0.01080                       4.37801                       0.19655
                       0.00653                       5.46785                       0.21547
                      -0.00014                       6.55180                       0.24064
                      -0.00985                       7.64363                       0.27164
                      -0.02311                       8.74774                       0.30880
                      -0.04028                       9.86179                       0.35271
                      -0.06172                      10.97949                       0.40240
                      -0.08757                      12.09321                       0.45719
                      -0.11771                      13.19676                       0.51634
                      -0.15174                      14.28796                       0.57911
                      -0.18262                      15.19087                       0.63368
                      -0.20864                      15.91397                       0.67634
                      -0.23656                      16.64559                       0.70516
                      -0.24961                      17.01622                       0.73093
        </DataArray>
        <DataArray type="Float32" Name="OrientationX" NumberOfComponents="3" format="ascii">
                       0.99524                      -0.04362                      -0.08720
                       0.99524                      -0.04341                      -0.08721
                       0.99527                      -0.04274                      -0.08722
                       0.99531                      -0.04177                      -0.08725
                       0.99537                      -0.04016                      -0.08733
                       0.99545                      -0.03765                      -0.08750
                       0.99555                      -0.03447                      -0.08774
                       0.99565                      -0.03056                      -0.08803
                       0.99576                      -0.02584                      -0.08832
                       0.99586                      -0.02024                      -0.08857
                       0.99596                      -0.01376                      -0.08872
                       0.99604                      -0.00645                      -0.08873
                       0.99607                       0.00154                      -0.08855
                       0.99606                       0.00991                      -0.08817
                       0.99599                       0.01824                      -0.08760
                       0.99590                       0.02474                      -0.08699
                       0.99582                       0.02932                      -0.08646
                       0.99576                       0.03304                      -0.08591
                       0.99573                       0.03448                      -0.08564
        </DataArray>
        <DataArray type="Float32" Name="OrientationY" NumberOfComponents="3" format="ascii">
                       0.08716                      -0.00288                       0.99619
                       0.08715                      -0.00310                       0.99619
                       0.08714                      -0.00370                       0.99619
                       0.08714                      -0.00444                       0.99619
                       0.08718                      -0.00552                       0.99618
                       0.08730                      -0.00690                       0.99616
                       0.08750                      -0.00830                       0.99613
                       0.08777                      -0.00963                       0.99609
                       0.08807                      -0.01084                       0.99606
                       0.08834                      -0.01193                       0.99602
                       0.08855                      -0.01287                       0.99599
                       0.08863                      -0.01368                       0.99597
                       0.08856                      -0.01436                       0.99597
                       0.08831                      -0.01493                       0.99598
                       0.08788                      -0.01540                       0.99601
                       0.08740                      -0.01572                       0.99605
                       0.08695                      -0.01591                       0.99609
                       0.08647                      -0.01603                       0.99613
                       0.08623                      -0.01606                       0.99615
        </DataArray>
        <DataArray type="Float32" Name="OrientationZ" NumberOfComponents="3" format="ascii">
                      -0.04370                      -0.99904                       0.00094
                      -0.04351                      -0.99905                       0.00070
                      -0.04290                      -0.99908                       0.00005
                      -0.04200                      -0.99912                      -0.00078
                      -0.04049                      -0.99918                      -0.00199
                      -0.03811                      -0.99927                      -0.00358
                      -0.03507                      -0.99937                      -0.00524
                      -0.03129                      -0.99949                      -0.00690
                      -0.02669                      -0.99961                      -0.00852
                      -0.02122                      -0.99972                      -0.01009
                      -0.01484                      -0.99982                      -0.01160
                      -0.00763                      -0.99989                      -0.01305
                       0.00026                      -0.99990                      -0.01444
                       0.00855                      -0.99984                      -0.01575
                       0.01682                      -0.99972                      -0.01694
                       0.02328                      -0.99957                      -0.01781
                       0.02783                      -0.99944                      -0.01839
                       0.03153                      -0.99933                      -0.01882
                       0.03297                      -0.99928                      -0.01897
        </DataArray>
        <DataArray type="Float32" Name="Force" NumberOfComponents="3" format="ascii">
                       0.31679                      -0.01047                       3.62089
                     160.38277                      -6.96418                      19.79296
                     181.73240                      -7.75361                      43.33973
                     144.69471                      -6.02290                      50.80904
                    1230.98143                     -49.74897                    -236.40441
                    1239.34352                     -46.92509                    -219.61115
                    1384.18361                     -47.95413                    -244.76249
                    1274.66333                     -39.11635                    -212.62820
                    1182.14248                     -30.64385                    -174.76838
                    1253.82953                     -25.41588                    -188.67035
                    1230.09914                     -16.88547                    -185.17962
                    1376.25669                      -8.59014                    -270.79464
                    1584.01498                       3.16573                    -391.40039
                    1825.46758                      19.35320                    -489.75885
                    2005.57929                      38.39885                    -556.77678
                    2088.06354                      53.86592                    -579.78839
                    2057.82755                      62.70689                    -567.21510
                    1498.73268                      51.33627                    -406.48675
                     438.62526                      15.15766                     -31.78881
        </DataArray>
        <DataArray type="Float32" Name="Moment" NumberOfComponents="3" format="ascii">
                       0.00000                       0.00000                       0.00000
                       0.00000                       0.00000                       0.00000
                       0.00000                       0.00000                       0.00000
                       0.00000                       0.00000                       0.00000
                      30.38904                     754.21549                      -0.47841
                      31.59194                     836.00301                      -0.34722
                      28.98085                     837.11480                      -0.11556
                      26.46449                     861.43346                       0.17489
                      21.82733                     839.08620                       0.51599
                      16.40057                     802.51156                       0.88504
                       9.32298                     666.97565                       1.11244
                       4.08870                     610.68920                       1.40767
                      -0.72377                     575.75978                       1.72773
                      -4.57923                     476.96093                       1.77943
                      -7.70670                     430.33676                       1.91827
                      -9.09987                     372.92108                       1.87418
                      -9.59203                     331.02457                       1.79612
                      -5.40143                     165.21523                       0.95017
                      -4.87627                     142.86802                       0.83962
        </DataArray>
      </PointData>
      <Lines>
        <DataArray type="Int32" Name="connectivity" format="ascii">
      0      1
      1      2
      2      3
      3      4
      4      5
      5      6
      6      7
      7      8
      8      9
      9     10
     10     11
     11     12
     12     13
     13     14
     14     15
     15     16
     16     17
     17     18
        </DataArray>
        <DataArray type="Int32" Name="offsets" format="ascii">
      2
      4
      6
      8
     10
     12
     14
     16
     18
     20
     22
     24
     26
     28
     30
     32
     34
     36
        </DataArray>
      </Lines>
    </Piece>
  </PolyData>
</VTKFile>
