<?xml version="1.0"?>
<VTKFile type="PolyData" version="0.1" byte_order="LittleEndian">
  <PolyData>
    <Piece NumberOfPoints="     19" NumberOfVerts="  0" NumberOfLines="     18"
           NumberOfStrips="  0" NumberOfPolys="      0">
      <Points>
        <DataArray type="Float32" NumberOfComponents="3" format="ascii">
                      -5.19572                      -0.04864                      88.51362
                      -5.37479                      -0.08949                      87.15928
                      -5.75381                      -0.07639                      84.45033
                      -6.14113                      -0.01823                      81.74094
                      -6.62753                       0.08161                      78.35343
                      -7.15083                       0.05896                      74.28517
                      -7.63920                      -0.09293                      70.21663
                      -8.11593                      -0.24658                      66.14672
                      -8.57539                      -0.40377                      62.07492
                      -9.01509                      -0.56259                      58.00100
                      -9.43317                      -0.71941                      53.92476
                      -9.82605                      -0.87576                      49.84601
                     -10.19200                      -1.03171                      45.76474
                     -10.53007                      -1.18730                      41.68105
                     -10.83772                      -1.34249                      37.59495
                     -11.07039                      -1.47160                      34.18820
                     -11.24254                      -1.58267                      31.46232
                     -11.40363                      -1.74868                      28.73765
                     -11.48043                      -1.79001                      27.37401
        </DataArray>
      </Points>
      <PointData>
        <DataArray type="Float32" Name="TranslationalVelocity" NumberOfComponents="3" format="ascii">
                      -0.00222                       0.78424                      -0.02537
                      -0.00410                       1.49870                      -0.04667
                      -0.00369                       2.92807                      -0.03982
                      -0.00148                       4.35709                      -0.00951
                       0.00205                       6.14232                       0.04245
                      -0.00101                       8.28115                       0.03064
                      -0.01106                      10.41586                      -0.04819
                      -0.02253                      12.54808                      -0.12764
                      -0.03576                      14.67802                      -0.20864
                      -0.05088                      16.80594                      -0.29019
                      -0.06791                      18.93215                      -0.37043
                      -0.08705                      21.05693                      -0.45019
                      -0.10840                      23.18053                      -0.52954
                      -0.13196                      25.30315                      -0.60855
                      -0.15763                      27.42487                      -0.68726
                      -0.18055                      29.19228                      -0.75271
                      -0.20006                      30.60553                      -0.80910
                      -0.22268                      32.01737                      -0.89384
                      -0.23231                      32.72366                      -0.91474
        </DataArray>
        <DataArray type="Float32" Name="RotationalVelocity" NumberOfComponents="3" format="ascii">
                       0.52161                      -0.00000                      -0.04563
                       0.52150                       0.00002                      -0.04562
                       0.52122                       0.00009                      -0.04559
                       0.52086                       0.00019                      -0.04556
                       0.52035                       0.00035                      -0.04553
                       0.51970                       0.00060                      -0.04551
                       0.51905                       0.00091                      -0.04552
                       0.51843                       0.00126                      -0.04556
                       0.51787                       0.00166                      -0.04562
                       0.51737                       0.00212                      -0.04567
                       0.51695                       0.00262                      -0.04572
                       0.51660                       0.00315                      -0.04574
                       0.51632                       0.00370                      -0.04571
                       0.51609                       0.00425                      -0.04563
                       0.51591                       0.00475                      -0.04549
                       0.51580                       0.00512                      -0.04533
                       0.51574                       0.00535                      -0.04518
                       0.51570                       0.00550                      -0.04502
                       0.51569                       0.00554                      -0.04494
        </DataArray>
        <DataArray type="Float32" Name="TranslationalAcceleration" NumberOfComponents="3" format="ascii">
                       0.03579                       0.01333                       0.40906
                       0.04333                       0.01540                       0.49452
                       0.12344                       0.01946                       1.41509
                       0.19635                       0.01119                       2.26101
                       0.28012                      -0.00460                       3.24759
                       0.37245                       0.02019                       4.36573
                       0.45775                       0.08729                       5.45056
                       0.53623                       0.16325                       6.52964
                       0.60662                       0.24905                       7.61697
                       0.66665                       0.34411                       8.71737
                       0.71339                       0.44690                       9.82901
                       0.74370                       0.55701                      10.94587
                       0.75461                       0.67342                      12.06056
                       0.74372                       0.79504                      13.16692
                       0.70961                       0.92090                      14.26260
                       0.66294                       1.02852                      15.17017
                       0.61492                       1.11820                      15.89690
                       0.55872                       1.22389                      16.62947
                       0.52728                       1.26610                      17.00240
        </DataArray>
        <DataArray type="Float32" Name="OrientationX" NumberOfComponents="3" format="ascii">
                       0.99145                      -0.00142                      -0.13050
                       0.99147                      -0.00141                      -0.13031
                       0.99155                      -0.00139                      -0.12968
                       0.99167                      -0.00136                      -0.12876
                       0.99187                      -0.00130                      -0.12725
                       0.99217                      -0.00119                      -0.12490
                       0.99254                      -0.00106                      -0.12192
                       0.99298                      -0.00092                      -0.11826
                       0.99350                      -0.00081                      -0.11385
                       0.99408                      -0.00075                      -0.10863
                       0.99472                      -0.00077                      -0.10261
                       0.99540                      -0.00089                      -0.09583
                       0.99608                      -0.00112                      -0.08844
                       0.99674                      -0.00145                      -0.08071
                       0.99733                      -0.00185                      -0.07305
                       0.99774                      -0.00220                      -0.06710
                       0.99801                      -0.00245                      -0.06293
                       0.99822                      -0.00264                      -0.05958
                       0.99829                      -0.00270                      -0.05831
        </DataArray>
        <DataArray type="Float32" Name="OrientationY" NumberOfComponents="3" format="ascii">
                       0.00283                      -0.99947                       0.03233
                       0.00283                      -0.99947                       0.03231
                       0.00282                      -0.99948                       0.03224
                       0.00281                      -0.99948                       0.03216
                       0.00280                      -0.99948                       0.03203
                       0.00281                      -0.99949                       0.03185
                       0.00282                      -0.99949                       0.03165
                       0.00282                      -0.99950                       0.03146
                       0.00277                      -0.99951                       0.03127
                       0.00264                      -0.99951                       0.03109
                       0.00242                      -0.99952                       0.03093
                       0.00207                      -0.99952                       0.03079
                       0.00160                      -0.99953                       0.03067
                       0.00102                      -0.99953                       0.03057
                       0.00038                      -0.99953                       0.03051
                      -0.00015                      -0.99954                       0.03047
                      -0.00053                      -0.99954                       0.03045
                      -0.00082                      -0.99954                       0.03045
                      -0.00092                      -0.99954                       0.03046
        </DataArray>
        <DataArray type="Float32" Name="OrientationZ" NumberOfComponents="3" format="ascii">
                      -0.13048                      -0.03243                      -0.99092
                      -0.13028                      -0.03240                      -0.99095
                      -0.12966                      -0.03234                      -0.99103
                      -0.12874                      -0.03225                      -0.99115
                      -0.12723                      -0.03212                      -0.99135
                      -0.12487                      -0.03195                      -0.99166
                      -0.12189                      -0.03176                      -0.99204
                      -0.11823                      -0.03157                      -0.99248
                      -0.11382                      -0.03138                      -0.99301
                      -0.10860                      -0.03119                      -0.99360
                      -0.10258                      -0.03101                      -0.99424
                      -0.09581                      -0.03084                      -0.99492
                      -0.08843                      -0.03069                      -0.99561
                      -0.08072                      -0.03056                      -0.99627
                      -0.07308                      -0.03045                      -0.99686
                      -0.06713                      -0.03039                      -0.99728
                      -0.06298                      -0.03036                      -0.99755
                      -0.05964                      -0.03035                      -0.99776
                      -0.05837                      -0.03035                      -0.99783
        </DataArray>
        <DataArray type="Float32" Name="Force" NumberOfComponents="3" format="ascii">
                       0.00213                      -0.75213                       0.02433
                     115.28229                     -18.00561                     -14.56726
                     132.04684                     -38.44039                     -16.01785
                     105.38769                     -44.66949                     -12.22725
                     944.08946                      96.10672                    -124.30783
                     971.73524                      84.86180                    -125.13920
                    1093.14576                      94.80961                    -137.41384
                    1015.88768                      77.84087                    -123.56086
                     951.64173                      56.48865                    -110.92054
                    1037.81811                      73.92627                    -115.85023
                    1080.85520                     107.38242                    -115.02105
                    1266.32073                     190.55980                    -128.15727
                    1572.70276                     281.33311                    -148.86144
                    1752.71489                     320.56396                    -152.45103
                    1852.14433                     331.99455                    -146.57636
                    1891.75640                     329.67884                    -138.06601
                    1855.41403                     317.28154                    -127.44596
                    1377.70736                     231.42603                     -89.86717
                     436.01082                      -5.70314                     -25.31624
        </DataArray>
        <DataArray type="Float32" Name="Moment" NumberOfComponents="3" format="ascii">
                       0.00000                       0.00000                       0.00000
                       0.00000                       0.00000                       0.00000
                       0.00000                       0.00000                       0.00000
                       0.00000                       0.00000                       0.00000
                      74.28512                      18.93558                     578.81823
                      81.27359                      21.11012                     645.42410
                      79.49950                      21.15694                     647.02670
                      79.73723                      21.88026                     669.36446
                      75.25083                      21.45265                     656.53901
                      68.49539                      20.46694                     626.66084
                      52.66127                      16.66143                     510.41400
                      44.22092                      14.98145                     459.22269
                      36.24858                      13.30526                     408.10733
                      29.64509                      11.92090                     365.89327
                      25.55269                      11.34959                     348.59145
                      22.83206                      11.03800                     339.19785
                      18.82589                       9.70122                     298.22708
                       9.22369                       5.01876                     154.32790
                       8.00088                       4.44805                     136.79377
        </DataArray>
      </PointData>
      <Lines>
        <DataArray type="Int32" Name="connectivity" format="ascii">
      0      1
      1      2
      2      3
      3      4
      4      5
      5      6
      6      7
      7      8
      8      9
      9     10
     10     11
     11     12
     12     13
     13     14
     14     15
     15     16
     16     17
     17     18
        </DataArray>
        <DataArray type="Int32" Name="offsets" format="ascii">
      2
      4
      6
      8
     10
     12
     14
     16
     18
     20
     22
     24
     26
     28
     30
     32
     34
     36
        </DataArray>
      </Lines>
    </Piece>
  </PolyData>
</VTKFile>
