<?xml version="1.0"?>
<VTKFile type="PolyData" version="0.1" byte_order="LittleEndian">
  <PolyData>
    <Piece NumberOfPoints="     19" NumberOfVerts="  0" NumberOfLines="     18"
           NumberOfStrips="  0" NumberOfPolys="      0">
      <Points>
        <DataArray type="Float32" NumberOfComponents="3" format="ascii">
                      -5.19303                       0.30658                      88.54441
                      -5.36958                       0.58925                      87.21893
                      -5.74168                       1.24698                      84.59001
                      -6.12129                       1.94842                      81.97121
                      -6.59772                       2.85129                      78.70319
                      -7.11241                       3.79500                      74.74461
                      -7.59543                       4.61155                      70.75520
                      -8.06760                       5.42558                      66.76394
                      -8.52352                       6.23544                      62.76991
                      -8.96081                       7.04312                      58.77338
                      -9.37772                       7.85229                      54.77501
                      -9.77084                       8.66154                      50.77428
                     -10.13859                       9.47091                      46.77117
                     -10.48010                      10.28040                      42.76577
                     -10.79289                      11.09006                      38.75809
                     -11.03118                      11.76480                      35.41673
                     -11.20879                      12.29677                      32.74129
                     -11.37718                      12.77472                      30.05416
                     -11.45702                      13.05439                      28.71902
        </DataArray>
      </Points>
      <PointData>
        <DataArray type="Float32" Name="TranslationalVelocity" NumberOfComponents="3" format="ascii">
                       0.01399                       0.76805                       0.15991
                       0.02691                       1.46741                       0.30734
                       0.05698                       2.85523                       0.65031
                       0.08914                       4.23781                       1.01596
                       0.13075                       5.96281                       1.48643
                       0.17475                       8.04887                       1.97794
                       0.21347                      10.14899                       2.40302
                       0.25253                      12.24911                       2.82667
                       0.29171                      14.34962                       3.24809
                       0.33087                      16.45043                       3.66837
                       0.36989                      18.55125                       4.08947
                       0.40835                      20.65232                       4.51071
                       0.44586                      22.75367                       4.93216
                       0.48199                      24.85523                       5.35383
                       0.51629                      26.95687                       5.77577
                       0.54306                      28.70815                       6.12752
                       0.56282                      30.10977                       6.40491
                       0.57889                      31.51696                       6.65419
                       0.58812                      32.21589                       6.80003
        </DataArray>
        <DataArray type="Float32" Name="RotationalVelocity" NumberOfComponents="3" format="ascii">
                       0.52161                       0.00000                      -0.04563
                       0.52156                      -0.00001                      -0.04563
                       0.52146                      -0.00004                      -0.04562
                       0.52134                      -0.00009                      -0.04561
                       0.52119                      -0.00017                      -0.04561
                       0.52103                      -0.00028                      -0.04563
                       0.52089                      -0.00039                      -0.04565
                       0.52079                      -0.00049                      -0.04567
                       0.52073                      -0.00056                      -0.04565
                       0.52071                      -0.00057                      -0.04557
                       0.52072                      -0.00052                      -0.04541
                       0.52077                      -0.00040                      -0.04515
                       0.52083                      -0.00019                      -0.04478
                       0.52090                       0.00012                      -0.04432
                       0.52096                       0.00051                      -0.04380
                       0.52100                       0.00091                      -0.04336
                       0.52102                       0.00127                      -0.04304
                       0.52103                       0.00166                      -0.04279
                       0.52103                       0.00186                      -0.04270
        </DataArray>
        <DataArray type="Float32" Name="TranslationalAcceleration" NumberOfComponents="3" format="ascii">
                       0.03505                      -0.08405                       0.40062
                       0.04290                      -0.10248                       0.48411
                       0.12575                      -0.31789                       1.37915
                       0.20756                      -0.52891                       2.19798
                       0.31322                      -0.78376                       3.14991
                       0.45075                      -1.03606                       4.23724
                       0.60429                      -1.24513                       5.30108
                       0.77536                      -1.45068                       6.35983
                       0.96413                      -1.65539                       7.42745
                       1.16951                      -1.86099                       8.50857
                       1.38966                      -2.06830                       9.60110
                       1.62266                      -2.27584                      10.69934
                       1.86697                      -2.48214                      11.79607
                       2.12203                      -2.68588                      12.88525
                       2.38879                      -2.88634                      13.96476
                       2.62242                      -3.05108                      14.85969
                       2.81882                      -3.17994                      15.57737
                       3.02825                      -3.29440                      16.30538
                       3.13607                      -3.36340                      16.67283
        </DataArray>
        <DataArray type="Float32" Name="OrientationX" NumberOfComponents="3" format="ascii">
                       0.99153                       0.00892                      -0.12961
                       0.99155                       0.00889                      -0.12942
                       0.99163                       0.00876                      -0.12884
                       0.99174                       0.00858                      -0.12799
                       0.99192                       0.00829                      -0.12659
                       0.99220                       0.00784                      -0.12441
                       0.99255                       0.00727                      -0.12164
                       0.99296                       0.00655                      -0.11825
                       0.99344                       0.00564                      -0.11418
                       0.99399                       0.00449                      -0.10938
                       0.99459                       0.00308                      -0.10385
                       0.99522                       0.00141                      -0.09765
                       0.99586                      -0.00050                      -0.09091
                       0.99647                      -0.00256                      -0.08389
                       0.99703                      -0.00465                      -0.07694
                       0.99742                      -0.00630                      -0.07154
                       0.99767                      -0.00745                      -0.06777
                       0.99787                      -0.00835                      -0.06474
                       0.99794                      -0.00867                      -0.06359
        </DataArray>
        <DataArray type="Float32" Name="OrientationY" NumberOfComponents="3" format="ascii">
                      -0.01783                      -0.97885                      -0.20380
                      -0.01783                      -0.97885                      -0.20379
                      -0.01782                      -0.97886                      -0.20375
                      -0.01782                      -0.97887                      -0.20371
                      -0.01781                      -0.97888                      -0.20366
                      -0.01779                      -0.97889                      -0.20361
                      -0.01778                      -0.97890                      -0.20358
                      -0.01778                      -0.97890                      -0.20357
                      -0.01784                      -0.97890                      -0.20358
                      -0.01799                      -0.97889                      -0.20360
                      -0.01823                      -0.97888                      -0.20364
                      -0.01860                      -0.97886                      -0.20368
                      -0.01908                      -0.97884                      -0.20371
                      -0.01966                      -0.97883                      -0.20374
                      -0.02029                      -0.97881                      -0.20376
                      -0.02080                      -0.97880                      -0.20376
                      -0.02115                      -0.97879                      -0.20376
                      -0.02141                      -0.97879                      -0.20374
                      -0.02148                      -0.97879                      -0.20373
        </DataArray>
        <DataArray type="Float32" Name="OrientationZ" NumberOfComponents="3" format="ascii">
                      -0.12868                       0.20439                      -0.97039
                      -0.12850                       0.20437                      -0.97042
                      -0.12790                       0.20434                      -0.97051
                      -0.12704                       0.20430                      -0.97063
                      -0.12561                       0.20427                      -0.97082
                      -0.12338                       0.20423                      -0.97112
                      -0.12055                       0.20422                      -0.97147
                      -0.11709                       0.20424                      -0.97189
                      -0.11291                       0.20428                      -0.97238
                      -0.10798                       0.20435                      -0.97292
                      -0.10228                       0.20443                      -0.97352
                      -0.09587                       0.20452                      -0.97416
                      -0.08889                       0.20460                      -0.97480
                      -0.08159                       0.20467                      -0.97542
                      -0.07436                       0.20471                      -0.97599
                      -0.06874                       0.20472                      -0.97640
                      -0.06482                       0.20471                      -0.97667
                      -0.06167                       0.20469                      -0.97688
                      -0.06048                       0.20467                      -0.97696
        </DataArray>
        <DataArray type="Float32" Name="Force" NumberOfComponents="3" format="ascii">
                      -0.00461                      -0.25286                      -0.05265
                     115.45218                      -9.87832                     -17.36796
                     133.57517                     -26.46344                     -23.17737
                     107.87007                     -34.13222                     -21.30610
                     920.85163                      99.56088                     -98.17811
                     974.41450                      91.62407                    -104.50776
                    1119.53730                     105.44700                    -116.73745
                    1059.29282                      87.87773                    -109.13152
                     997.28870                      67.18568                    -101.67735
                    1088.36800                      90.43531                    -101.78085
                    1138.93260                     133.60599                     -91.58401
                    1338.64800                     220.94343                     -85.33962
                    1661.35046                     309.57950                     -86.51974
                    1839.47558                     340.54144                     -82.44138
                    1929.14318                     342.33938                     -75.22285
                    1971.11566                     336.63817                     -68.24815
                    1925.20352                     318.09719                     -61.15008
                    1380.27409                     223.04336                     -40.44149
                     427.90478                      -7.96455                     -28.15606
        </DataArray>
        <DataArray type="Float32" Name="Moment" NumberOfComponents="3" format="ascii">
                       0.00000                       0.00000                       0.00000
                       0.00000                       0.00000                       0.00000
                       0.00000                       0.00000                       0.00000
                       0.00000                       0.00000                       0.00000
                      78.68227                    -128.05149                     608.13735
                      85.75272                    -142.09485                     674.96789
                      83.93604                    -142.35526                     676.37758
                      84.96285                    -148.37846                     705.21669
                      79.57592                    -144.12810                     685.27383
                      72.34345                    -137.03286                     651.82872
                      56.47671                    -112.95261                     537.56136
                      47.81531                    -102.03319                     485.87402
                      39.48986                     -90.88810                     433.07344
                      32.96873                     -82.66518                     394.14992
                      28.16515                     -77.48400                     369.68539
                      25.79497                     -76.75600                     366.39622
                      21.80521                     -68.80744                     328.56899
                       9.35658                     -31.02887                     148.21061
                       8.11289                     -27.43473                     131.05704
        </DataArray>
      </PointData>
      <Lines>
        <DataArray type="Int32" Name="connectivity" format="ascii">
      0      1
      1      2
      2      3
      3      4
      4      5
      5      6
      6      7
      7      8
      8      9
      9     10
     10     11
     11     12
     12     13
     13     14
     14     15
     15     16
     16     17
     17     18
        </DataArray>
        <DataArray type="Int32" Name="offsets" format="ascii">
      2
      4
      6
      8
     10
     12
     14
     16
     18
     20
     22
     24
     26
     28
     30
     32
     34
     36
        </DataArray>
      </Lines>
    </Piece>
  </PolyData>
</VTKFile>
