<?xml version="1.0"?>
<VTKFile type="PolyData" version="0.1" byte_order="LittleEndian">
  <PolyData>
    <Piece NumberOfPoints="     19" NumberOfVerts="  0" NumberOfLines="     18"
           NumberOfStrips="  0" NumberOfPolys="      0">
      <Points>
        <DataArray type="Float32" NumberOfComponents="3" format="ascii">
                      -4.99268                       1.24645                      90.83445
                      -4.98652                       2.38032                      91.59747
                      -4.98823                       4.59515                      93.20260
                      -4.99514                       6.78560                      94.84452
                      -5.00443                       9.51016                      96.91795
                      -4.96635                      12.86282                      99.28132
                      -4.90395                      16.29033                     101.53197
                      -4.83124                      19.72117                     103.77721
                      -4.74288                      23.15621                     106.01539
                      -4.63637                      26.59412                     108.24824
                      -4.50964                      30.03255                     110.47902
                      -4.35923                      33.47204                     112.70657
                      -4.18334                      36.91225                     114.93103
                      -3.98085                      40.35284                     117.15256
                      -3.74893                      43.79347                     119.37110
                      -3.53244                      46.66054                     121.21745
                      -3.34593                      48.95831                     122.68633
                      -3.15236                      51.28616                     124.10797
                      -3.04863                      52.42705                     124.85285
        </DataArray>
      </Points>
      <PointData>
        <DataArray type="Float32" Name="TranslationalVelocity" NumberOfComponents="3" format="ascii">
                       0.05688                      -0.43559                       0.65016
                       0.10862                      -0.83393                       1.24168
                       0.20980                      -1.67156                       2.39754
                       0.30998                      -2.52869                       3.54131
                       0.43477                      -3.61195                       4.96502
                       0.58860                      -4.85031                       6.71866
                       0.74627                      -6.03226                       8.51356
                       0.90464                      -7.21328                      10.31239
                       1.06396                      -8.39269                      12.11554
                       1.22437                      -9.57143                      13.92219
                       1.38604                     -10.75117                      15.73089
                       1.54929                     -11.93134                      17.54167
                       1.71443                     -13.11196                      19.35407
                       1.88178                     -14.29303                      21.16763
                       2.05171                     -15.47450                      22.98189
                       2.19561                     -16.45928                      24.49404
                       2.31253                     -17.24363                      25.70603
                       2.43235                     -18.00358                      26.93396
                       2.49187                     -18.40192                      27.53576
        </DataArray>
        <DataArray type="Float32" Name="RotationalVelocity" NumberOfComponents="3" format="ascii">
                       0.52161                       0.00000                      -0.04563
                       0.52170                       0.00000                      -0.04564
                       0.52194                       0.00002                      -0.04567
                       0.52225                       0.00004                      -0.04572
                       0.52271                       0.00006                      -0.04578
                       0.52331                       0.00008                      -0.04588
                       0.52393                       0.00011                      -0.04600
                       0.52454                       0.00016                      -0.04615
                       0.52510                       0.00023                      -0.04634
                       0.52562                       0.00036                      -0.04655
                       0.52608                       0.00056                      -0.04681
                       0.52648                       0.00084                      -0.04712
                       0.52683                       0.00121                      -0.04747
                       0.52711                       0.00166                      -0.04787
                       0.52733                       0.00218                      -0.04832
                       0.52746                       0.00265                      -0.04873
                       0.52753                       0.00302                      -0.04908
                       0.52755                       0.00337                      -0.04944
                       0.52754                       0.00353                      -0.04963
        </DataArray>
        <DataArray type="Float32" Name="TranslationalAcceleration" NumberOfComponents="3" format="ascii">
                      -0.01988                      -0.34172                      -0.22720
                      -0.02431                      -0.41271                      -0.27566
                      -0.07199                      -1.16614                      -0.81146
                      -0.11827                      -1.85023                      -1.31802
                      -0.17583                      -2.64177                      -1.92168
                      -0.24294                      -3.56002                      -2.58453
                      -0.30957                      -4.47237                      -3.20867
                      -0.37785                      -5.38043                      -3.83818
                      -0.44615                      -6.29576                      -4.48068
                      -0.51232                      -7.22158                      -5.13919
                      -0.57413                      -8.15526                      -5.81309
                      -0.62968                      -9.09176                      -6.49811
                      -0.67800                     -10.02475                      -7.18923
                      -0.71963                     -10.94921                      -7.88194
                      -0.75709                     -11.86359                      -8.57368
                      -0.78882                     -12.62067                      -9.14988
                      -0.81756                     -13.22873                      -9.61064
                      -0.85196                     -13.85323                     -10.06372
                      -0.87342                     -14.16326                     -10.30251
        </DataArray>
        <DataArray type="Float32" Name="OrientationX" NumberOfComponents="3" format="ascii">
                       0.99736                       0.03628                      -0.06295
                       0.99736                       0.03613                      -0.06305
                       0.99735                       0.03564                      -0.06338
                       0.99735                       0.03493                      -0.06387
                       0.99734                       0.03376                      -0.06467
                       0.99731                       0.03193                      -0.06591
                       0.99728                       0.02962                      -0.06747
                       0.99723                       0.02678                      -0.06941
                       0.99715                       0.02335                      -0.07175
                       0.99703                       0.01930                      -0.07455
                       0.99686                       0.01462                      -0.07782
                       0.99663                       0.00934                      -0.08155
                       0.99632                       0.00359                      -0.08567
                       0.99593                      -0.00245                      -0.09005
                       0.99549                      -0.00846                      -0.09448
                       0.99510                      -0.01317                      -0.09801
                       0.99479                      -0.01649                      -0.10055
                       0.99453                      -0.01921                      -0.10270
                       0.99441                      -0.02027                      -0.10358
        </DataArray>
        <DataArray type="Float32" Name="OrientationY" NumberOfComponents="3" format="ascii">
                      -0.07249                       0.55513                      -0.82860
                      -0.07249                       0.55502                      -0.82867
                      -0.07250                       0.55472                      -0.82887
                      -0.07251                       0.55435                      -0.82912
                      -0.07253                       0.55384                      -0.82946
                      -0.07256                       0.55319                      -0.82989
                      -0.07259                       0.55256                      -0.83030
                      -0.07264                       0.55200                      -0.83067
                      -0.07271                       0.55152                      -0.83099
                      -0.07282                       0.55112                      -0.83124
                      -0.07299                       0.55081                      -0.83143
                      -0.07321                       0.55059                      -0.83156
                      -0.07349                       0.55043                      -0.83164
                      -0.07385                       0.55031                      -0.83169
                      -0.07426                       0.55024                      -0.83170
                      -0.07463                       0.55019                      -0.83170
                      -0.07495                       0.55016                      -0.83169
                      -0.07526                       0.55013                      -0.83168
                      -0.07541                       0.55012                      -0.83168
        </DataArray>
        <DataArray type="Float32" Name="OrientationZ" NumberOfComponents="3" format="ascii">
                       0.00488                       0.83097                       0.55630
                       0.00506                       0.83105                       0.55617
                       0.00562                       0.83127                       0.55584
                       0.00644                       0.83155                       0.55541
                       0.00781                       0.83194                       0.55481
                       0.00996                       0.83244                       0.55402
                       0.01269                       0.83294                       0.55321
                       0.01607                       0.83341                       0.55242
                       0.02016                       0.83384                       0.55164
                       0.02504                       0.83420                       0.55089
                       0.03071                       0.83450                       0.55015
                       0.03713                       0.83472                       0.54941
                       0.04417                       0.83488                       0.54866
                       0.05159                       0.83495                       0.54790
                       0.05902                       0.83497                       0.54713
                       0.06487                       0.83494                       0.54651
                       0.06904                       0.83490                       0.54606
                       0.07248                       0.83486                       0.54567
                       0.07384                       0.83484                       0.54551
        </DataArray>
        <DataArray type="Float32" Name="Force" NumberOfComponents="3" format="ascii">
                       0.00059                      -0.00454                       0.00678
                     155.68182                      10.19938                     -16.65413
                     171.36925                      22.65520                     -35.58719
                     132.88466                      26.48987                     -41.13512
                    1073.63267                     -24.11077                      20.73193
                    1124.51067                     -18.30809                       6.88639
                    1277.69711                     -24.36576                       6.75618
                    1196.90800                     -19.88320                      -5.44813
                    1140.88022                      -9.46568                     -27.90531
                    1196.20175                     -16.30362                     -30.30235
                    1152.98239                     -10.04388                     -49.58257
                    1243.58210                     -28.24559                     -41.84272
                    1349.28821                     -90.91121                      27.93888
                    1546.77431                    -132.42837                      53.72733
                    1748.62096                    -177.47303                      79.07257
                    1916.62303                    -217.58432                     101.16158
                    1932.73708                    -229.02542                     101.94639
                    1448.61932                    -175.38615                      73.00802
                     415.56276                      -5.84732                     -47.23650
        </DataArray>
        <DataArray type="Float32" Name="Moment" NumberOfComponents="3" format="ascii">
                       0.00000                       0.00000                       0.00000
                       0.00000                       0.00000                       0.00000
                       0.00000                       0.00000                       0.00000
                       0.00000                       0.00000                       0.00000
                      -6.04362                    -633.76189                    -424.07333
                      -8.39358                    -688.86604                    -460.78591
                     -10.63647                    -684.69586                    -457.79579
                     -13.78477                    -701.37527                    -468.69507
                     -17.36474                    -704.98867                    -470.80273
                     -19.99321                    -654.79334                    -436.94335
                     -20.89500                    -558.96109                    -372.65963
                     -24.32120                    -539.00118                    -358.98732
                     -25.81025                    -481.52023                    -320.34647
                     -27.58851                    -441.17357                    -293.15981
                     -27.31100                    -382.07963                    -253.59286
                     -25.20629                    -320.99449                    -212.85173
                     -22.72859                    -272.05394                    -180.27975
                     -11.20224                    -127.74455                     -84.60507
                      -9.78127                    -109.48714                     -72.49745
        </DataArray>
      </PointData>
      <Lines>
        <DataArray type="Int32" Name="connectivity" format="ascii">
      0      1
      1      2
      2      3
      3      4
      4      5
      5      6
      6      7
      7      8
      8      9
      9     10
     10     11
     11     12
     12     13
     13     14
     14     15
     15     16
     16     17
     17     18
        </DataArray>
        <DataArray type="Int32" Name="offsets" format="ascii">
      2
      4
      6
      8
     10
     12
     14
     16
     18
     20
     22
     24
     26
     28
     30
     32
     34
     36
        </DataArray>
      </Lines>
    </Piece>
  </PolyData>
</VTKFile>
