<?xml version="1.0"?>
<VTKFile type="PolyData" version="0.1" byte_order="LittleEndian">
  <PolyData>
    <Piece NumberOfPoints="     19" NumberOfVerts="  0" NumberOfLines="     18"
           NumberOfStrips="  0" NumberOfPolys="      0">
      <Points>
        <DataArray type="Float32" NumberOfComponents="3" format="ascii">
                      -4.97637                      -1.09884                      91.02079
                      -4.95583                      -2.10249                      91.94823
                      -4.94154                      -4.17408                      93.73431
                      -4.93837                      -6.27682                      95.48696
                      -4.93838                      -8.92496                      97.65649
                      -4.86899                     -12.00985                     100.35810
                      -4.75653                     -15.01049                     103.14963
                      -4.63208                     -18.01265                     105.93912
                      -4.48967                     -21.01505                     108.72764
                      -4.32663                     -24.01872                     111.51374
                      -4.14103                     -27.02579                     114.29479
                      -3.92883                     -30.03484                     117.07183
                      -3.68795                     -33.04543                     119.84492
                      -3.41708                     -36.05714                     122.61409
                      -3.11331                     -39.06962                     125.37906
                      -2.83426                     -41.58032                     127.67989
                      -2.59503                     -43.58355                     129.52422
                      -2.33975                     -45.54972                     131.40725
                      -2.21051                     -46.56076                     132.31728
        </DataArray>
      </Points>
      <PointData>
        <DataArray type="Float32" Name="TranslationalVelocity" NumberOfComponents="3" format="ascii">
                      -0.05014                      -0.53353                      -0.57316
                      -0.09595                      -1.01831                      -1.09676
                      -0.19048                      -1.95114                      -2.17792
                      -0.28642                      -2.86654                      -3.27603
                      -0.40722                      -4.00034                      -4.66014
                      -0.54788                      -5.41680                      -6.27432
                      -0.68454                      -6.88402                      -7.84638
                      -0.82100                      -8.35255                      -9.42117
                      -0.95707                      -9.82313                     -10.99793
                      -1.09268                     -11.29501                     -12.57709
                      -1.22779                     -12.76671                     -14.15958
                      -1.36220                     -14.23874                     -15.74447
                      -1.49581                     -15.71101                     -17.33133
                      -1.62853                     -17.18339                     -18.91974
                      -1.76033                     -18.65567                     -20.50936
                      -1.86945                     -19.88238                     -21.83473
                      -1.95608                     -20.86659                     -22.89251
                      -2.04062                     -21.87212                     -23.93101
                      -2.08412                     -22.35841                     -24.46511
        </DataArray>
        <DataArray type="Float32" Name="RotationalVelocity" NumberOfComponents="3" format="ascii">
                       0.52161                      -0.00000                      -0.04563
                       0.52170                       0.00000                      -0.04564
                       0.52196                       0.00001                      -0.04564
                       0.52229                       0.00003                      -0.04565
                       0.52277                       0.00008                      -0.04567
                       0.52339                       0.00016                      -0.04570
                       0.52402                       0.00028                      -0.04574
                       0.52463                       0.00044                      -0.04578
                       0.52520                       0.00064                      -0.04581
                       0.52571                       0.00087                      -0.04583
                       0.52615                       0.00111                      -0.04582
                       0.52654                       0.00137                      -0.04578
                       0.52688                       0.00161                      -0.04571
                       0.52716                       0.00183                      -0.04559
                       0.52739                       0.00201                      -0.04545
                       0.52754                       0.00212                      -0.04531
                       0.52763                       0.00217                      -0.04520
                       0.52769                       0.00217                      -0.04509
                       0.52770                       0.00216                      -0.04504
        </DataArray>
        <DataArray type="Float32" Name="TranslationalAcceleration" NumberOfComponents="3" format="ascii">
                      -0.02435                       0.30125                      -0.27829
                      -0.02937                       0.36506                      -0.33585
                      -0.08237                       1.06279                      -0.94201
                      -0.13014                       1.71507                      -1.48887
                      -0.18515                       2.48535                      -2.11989
                      -0.24988                       3.33936                      -2.86443
                      -0.31502                       4.15005                      -3.61668
                      -0.37989                       4.96022                      -4.36868
                      -0.44536                       5.77945                      -5.13020
                      -0.51169                       6.61105                      -5.90377
                      -0.57877                       7.45365                      -6.68697
                      -0.64635                       8.30192                      -7.47561
                      -0.71412                       9.14985                      -8.26423
                      -0.78189                       9.99247                      -9.04826
                      -0.84976                      10.82788                      -9.82585
                      -0.90678                      11.52057                     -10.47066
                      -0.95322                      12.07440                     -10.98911
                      -1.00168                      12.62395                     -11.52435
                      -1.02590                      12.91094                     -11.78722
        </DataArray>
        <DataArray type="Float32" Name="OrientationX" NumberOfComponents="3" format="ascii">
                       0.99783                      -0.03198                      -0.05753
                       0.99783                      -0.03184                      -0.05767
                       0.99782                      -0.03137                      -0.05812
                       0.99780                      -0.03070                      -0.05878
                       0.99777                      -0.02960                      -0.05989
                       0.99771                      -0.02791                      -0.06165
                       0.99762                      -0.02578                      -0.06391
                       0.99751                      -0.02316                      -0.06669
                       0.99735                      -0.01995                      -0.07002
                       0.99713                      -0.01609                      -0.07393
                       0.99686                      -0.01152                      -0.07838
                       0.99650                      -0.00627                      -0.08332
                       0.99607                      -0.00041                      -0.08861
                       0.99555                       0.00587                      -0.09405
                       0.99498                       0.01227                      -0.09935
                       0.99449                       0.01740                      -0.10340
                       0.99412                       0.02112                      -0.10619
                       0.99381                       0.02426                      -0.10838
                       0.99369                       0.02554                      -0.10919
        </DataArray>
        <DataArray type="Float32" Name="OrientationY" NumberOfComponents="3" format="ascii">
                       0.06391                       0.67995                       0.73047
                       0.06392                       0.67983                       0.73058
                       0.06394                       0.67951                       0.73088
                       0.06397                       0.67910                       0.73126
                       0.06405                       0.67851                       0.73180
                       0.06422                       0.67774                       0.73249
                       0.06446                       0.67697                       0.73318
                       0.06476                       0.67623                       0.73384
                       0.06507                       0.67555                       0.73444
                       0.06538                       0.67494                       0.73497
                       0.06562                       0.67440                       0.73544
                       0.06576                       0.67394                       0.73586
                       0.06577                       0.67354                       0.73622
                       0.06561                       0.67320                       0.73654
                       0.06528                       0.67292                       0.73683
                       0.06486                       0.67274                       0.73703
                       0.06445                       0.67262                       0.73717
                       0.06399                       0.67255                       0.73728
                       0.06374                       0.67253                       0.73732
        </DataArray>
        <DataArray type="Float32" Name="OrientationZ" NumberOfComponents="3" format="ascii">
                       0.01575                      -0.73256                       0.68052
                       0.01594                      -0.73268                       0.68039
                       0.01656                      -0.73300                       0.68003
                       0.01747                      -0.73341                       0.67957
                       0.01898                      -0.73400                       0.67889
                       0.02134                      -0.73477                       0.67798
                       0.02436                      -0.73556                       0.67702
                       0.02810                      -0.73633                       0.67604
                       0.03265                      -0.73705                       0.67505
                       0.03807                      -0.73770                       0.67405
                       0.04438                      -0.73828                       0.67304
                       0.05153                      -0.73876                       0.67199
                       0.05937                      -0.73915                       0.67092
                       0.06763                      -0.73943                       0.66982
                       0.07589                      -0.73961                       0.66874
                       0.08239                      -0.73968                       0.66790
                       0.08699                      -0.73968                       0.66731
                       0.09078                      -0.73966                       0.66683
                       0.09227                      -0.73963                       0.66666
        </DataArray>
        <DataArray type="Float32" Name="Force" NumberOfComponents="3" format="ascii">
                       0.16725                       1.77950                       1.91170
                     161.21345                      15.40634                      12.80490
                     183.10551                      31.88588                      29.86065
                     146.10028                      36.70191                      35.75001
                    1244.03729                    -124.50358                    -169.01273
                    1266.41712                    -111.95161                    -160.69761
                    1425.88179                    -123.18815                    -184.38630
                    1312.97368                     -99.38706                    -162.06608
                    1225.59844                     -73.15269                    -138.50783
                    1305.89499                     -74.53874                    -154.52728
                    1255.48411                     -51.88925                    -139.07664
                    1374.16310                     -81.89692                    -194.08117
                    1534.93905                    -147.41032                    -295.40477
                    1738.94829                    -180.52610                    -370.99355
                    1967.16772                    -217.99667                    -459.22148
                    2096.84824                    -231.53501                    -509.24581
                    2089.00683                    -223.76923                    -514.47543
                    1554.76993                    -160.18388                    -384.94928
                     445.19241                      15.51898                     -44.49396
        </DataArray>
        <DataArray type="Float32" Name="Moment" NumberOfComponents="3" format="ascii">
                       0.00000                       0.00000                       0.00000
                       0.00000                       0.00000                       0.00000
                       0.00000                       0.00000                       0.00000
                       0.00000                       0.00000                       0.00000
                     -14.89924                     571.43310                    -530.61495
                     -18.68648                     635.80148                    -590.20091
                     -21.48022                     639.34284                    -593.25296
                     -25.55503                     658.90825                    -611.10892
                     -29.07906                     645.27350                    -598.10870
                     -32.60714                     620.78628                    -575.00611
                     -31.96311                     522.34069                    -483.42439
                     -34.34888                     483.82441                    -447.36278
                     -36.87280                     451.13846                    -416.71626
                     -38.14090                     409.93687                    -378.25281
                     -34.76747                     333.17617                    -307.09525
                     -34.12911                     301.38228                    -277.55577
                     -29.60490                     247.62803                    -227.91444
                     -15.49914                     124.24962                    -114.30175
                     -13.47578                     106.29044                     -97.76147
        </DataArray>
      </PointData>
      <Lines>
        <DataArray type="Int32" Name="connectivity" format="ascii">
      0      1
      1      2
      2      3
      3      4
      4      5
      5      6
      6      7
      7      8
      8      9
      9     10
     10     11
     11     12
     12     13
     13     14
     14     15
     15     16
     16     17
     17     18
        </DataArray>
        <DataArray type="Int32" Name="offsets" format="ascii">
      2
      4
      6
      8
     10
     12
     14
     16
     18
     20
     22
     24
     26
     28
     30
     32
     34
     36
        </DataArray>
      </Lines>
    </Piece>
  </PolyData>
</VTKFile>
