<?xml version="1.0"?>
<VTKFile type="PolyData" version="0.1" byte_order="LittleEndian">
  <PolyData>
    <Piece NumberOfPoints="     19" NumberOfVerts="  0" NumberOfLines="     18"
           NumberOfStrips="  0" NumberOfPolys="      0">
      <Points>
        <DataArray type="Float32" NumberOfComponents="3" format="ascii">
                      -5.09421                      -1.46110                      89.67395
                      -5.18109                      -2.79152                      89.37332
                      -5.38357                      -5.43002                      88.68098
                      -5.59807                      -8.05768                      87.94418
                      -5.87067                     -11.33543                      86.99458
                      -6.12549                     -15.30200                      85.98382
                      -6.33450                     -19.29805                      85.09096
                      -6.53133                     -23.29401                      84.19454
                      -6.70997                     -27.29049                      83.29604
                      -6.86779                     -31.28708                      82.39383
                      -7.00296                     -35.28297                      81.48472
                      -7.11148                     -39.27854                      80.57043
                      -7.19135                     -43.27375                      79.65141
                      -7.24138                     -47.26850                      78.72806
                      -7.25883                     -51.26258                      77.80048
                      -7.24789                     -54.59026                      77.02444
                      -7.22334                     -57.25357                      76.40948
                      -7.18209                     -59.92902                      75.84634
                      -7.16086                     -61.25666                      75.52385
        </DataArray>
      </Points>
      <PointData>
        <DataArray type="Float32" Name="TranslationalVelocity" NumberOfComponents="3" format="ascii">
                      -0.06668                       0.17437                      -0.76212
                      -0.12739                       0.33512                      -1.45602
                      -0.24783                       0.70535                      -2.83184
                      -0.36785                       1.09915                      -4.20153
                      -0.51769                       1.60621                      -5.90924
                      -0.69928                       2.14389                      -7.97447
                      -0.88262                       2.61770                     -10.05341
                      -1.06648                       3.09245                     -12.13059
                      -1.25100                       3.56711                     -14.20634
                      -1.43628                       4.04241                     -16.28053
                      -1.62235                       4.51994                     -18.35284
                      -1.80930                       4.99864                     -20.42363
                      -1.99716                       5.47823                     -22.49305
                      -2.18589                       5.95846                     -24.56122
                      -2.37542                       6.43917                     -26.62822
                      -2.53388                       6.84004                     -28.34983
                      -2.66098                       7.15690                     -29.72745
                      -2.78889                       7.44611                     -31.11115
                      -2.85236                       7.61185                     -31.79772
        </DataArray>
        <DataArray type="Float32" Name="RotationalVelocity" NumberOfComponents="3" format="ascii">
                       0.52161                      -0.00000                      -0.04563
                       0.52155                       0.00000                      -0.04564
                       0.52140                       0.00001                      -0.04565
                       0.52120                       0.00001                      -0.04568
                       0.52090                       0.00002                      -0.04573
                       0.52051                      -0.00000                      -0.04583
                       0.52009                      -0.00004                      -0.04595
                       0.51968                      -0.00010                      -0.04612
                       0.51928                      -0.00019                      -0.04631
                       0.51891                      -0.00031                      -0.04653
                       0.51856                      -0.00044                      -0.04678
                       0.51826                      -0.00058                      -0.04704
                       0.51799                      -0.00073                      -0.04731
                       0.51776                      -0.00085                      -0.04756
                       0.51757                      -0.00094                      -0.04777
                       0.51745                      -0.00098                      -0.04791
                       0.51738                      -0.00097                      -0.04797
                       0.51735                      -0.00091                      -0.04799
                       0.51734                      -0.00087                      -0.04797
        </DataArray>
        <DataArray type="Float32" Name="TranslationalAcceleration" NumberOfComponents="3" format="ascii">
                       0.00796                       0.40057                       0.09095
                       0.00961                       0.48421                       0.11043
                       0.02919                       1.38018                       0.33793
                       0.04752                       2.20197                       0.55554
                       0.06808                       3.16166                       0.80977
                       0.08543                       4.26378                       1.04713
                       0.09590                       5.34710                       1.22395
                       0.10283                       6.43025                       1.37864
                       0.10664                       7.52672                       1.51342
                       0.10788                       8.64060                       1.63009
                       0.10725                       9.76932                       1.73009
                       0.10550                      10.90645                       1.81305
                       0.10362                      12.04412                       1.87916
                       0.10288                      13.17573                       1.92926
                       0.10483                      14.29861                       1.96527
                       0.10995                      15.23018                       1.98685
                       0.11713                      15.97715                       1.99883
                       0.12753                      16.73272                       1.99516
                       0.13457                      17.11569                       2.00546
        </DataArray>
        <DataArray type="Float32" Name="OrientationX" NumberOfComponents="3" format="ascii">
                       0.99440                      -0.04253                      -0.09673
                       0.99441                      -0.04232                      -0.09669
                       0.99445                      -0.04167                      -0.09656
                       0.99451                      -0.04071                      -0.09637
                       0.99460                      -0.03913                      -0.09608
                       0.99474                      -0.03666                      -0.09568
                       0.99489                      -0.03353                      -0.09519
                       0.99508                      -0.02968                      -0.09457
                       0.99528                      -0.02506                      -0.09377
                       0.99550                      -0.01960                      -0.09272
                       0.99573                      -0.01332                      -0.09139
                       0.99595                      -0.00627                      -0.08973
                       0.99614                       0.00137                      -0.08775
                       0.99629                       0.00934                      -0.08550
                       0.99639                       0.01723                      -0.08310
                       0.99643                       0.02336                      -0.08109
                       0.99644                       0.02764                      -0.07959
                       0.99645                       0.03109                      -0.07829
                       0.99645                       0.03241                      -0.07774
        </DataArray>
        <DataArray type="Float32" Name="OrientationY" NumberOfComponents="3" format="ascii">
                       0.08498                      -0.22223                       0.97128
                       0.08497                      -0.22243                       0.97124
                       0.08495                      -0.22295                       0.97112
                       0.08493                      -0.22360                       0.97097
                       0.08495                      -0.22453                       0.97076
                       0.08502                      -0.22573                       0.97047
                       0.08517                      -0.22692                       0.97018
                       0.08537                      -0.22805                       0.96990
                       0.08558                      -0.22908                       0.96964
                       0.08576                      -0.22999                       0.96941
                       0.08587                      -0.23077                       0.96921
                       0.08585                      -0.23144                       0.96905
                       0.08567                      -0.23200                       0.96894
                       0.08533                      -0.23247                       0.96885
                       0.08482                      -0.23285                       0.96881
                       0.08430                      -0.23311                       0.96879
                       0.08385                      -0.23327                       0.96879
                       0.08340                      -0.23338                       0.96880
                       0.08318                      -0.23341                       0.96881
        </DataArray>
        <DataArray type="Float32" Name="OrientationZ" NumberOfComponents="3" format="ascii">
                      -0.06280                      -0.97407                      -0.21737
                      -0.06261                      -0.97403                      -0.21759
                      -0.06199                      -0.97394                      -0.21817
                      -0.06108                      -0.97383                      -0.21891
                      -0.05956                      -0.97368                      -0.21999
                      -0.05718                      -0.97350                      -0.22142
                      -0.05413                      -0.97334                      -0.22291
                      -0.05036                      -0.97320                      -0.22440
                      -0.04577                      -0.97308                      -0.22586
                      -0.04033                      -0.97300                      -0.22728
                      -0.03400                      -0.97292                      -0.22865
                      -0.02685                      -0.97283                      -0.22996
                      -0.01903                      -0.97271                      -0.23122
                      -0.01082                      -0.97256                      -0.23240
                      -0.00266                      -0.97236                      -0.23348
                       0.00372                      -0.97217                      -0.23425
                       0.00821                      -0.97202                      -0.23476
                       0.01185                      -0.97189                      -0.23514
                       0.01326                      -0.97184                      -0.23527
        </DataArray>
        <DataArray type="Float32" Name="Force" NumberOfComponents="3" format="ascii">
                       0.29986                      -0.78419                       3.42740
                     159.10274                     -14.04610                      17.12634
                     180.93989                     -20.61083                      40.79606
                     147.18336                     -20.18237                      49.12909
                    1246.76737                     -20.68944                    -247.38493
                    1242.20540                     -21.56186                    -227.76646
                    1380.47353                     -19.73937                    -251.68173
                    1267.56895                     -16.06731                    -217.42402
                    1173.24690                     -14.22489                    -178.69216
                    1241.87991                      -7.51239                    -190.92268
                    1226.70386                       2.07436                    -194.48279
                    1377.28103                      26.61191                    -279.97197
                    1595.12469                      59.47969                    -392.74568
                    1840.66964                      92.26164                    -487.09034
                    2005.89649                     119.82698                    -539.64996
                    2083.46628                     137.41263                    -555.93791
                    2041.93184                     142.49483                    -536.88277
                    1485.44211                     107.55105                    -382.74664
                     443.09452                      13.13650                     -28.98484
        </DataArray>
        <DataArray type="Float32" Name="Moment" NumberOfComponents="3" format="ascii">
                       0.00000                       0.00000                       0.00000
                       0.00000                       0.00000                       0.00000
                       0.00000                       0.00000                       0.00000
                       0.00000                       0.00000                       0.00000
                      45.47440                     746.27381                     166.76848
                      47.74612                     817.94624                     182.96833
                      44.84192                     813.33706                     182.16784
                      42.60817                     832.94540                     186.84964
                      37.47253                     808.39653                     181.68219
                      31.34887                     770.67828                     173.58803
                      21.74957                     637.63133                     143.98680
                      15.54220                     581.82358                     131.76110
                      10.24370                     549.43403                     124.81395
                       4.62355                     453.88434                     103.44394
                       0.72189                     406.66403                      92.98131
                      -1.71834                     358.67907                      82.21588
                      -2.97977                     316.66329                      72.71305
                      -2.11041                     160.44790                      36.89501
                      -2.03979                     139.74178                      32.15129
        </DataArray>
      </PointData>
      <Lines>
        <DataArray type="Int32" Name="connectivity" format="ascii">
      0      1
      1      2
      2      3
      3      4
      4      5
      5      6
      6      7
      7      8
      8      9
      9     10
     10     11
     11     12
     12     13
     13     14
     14     15
     15     16
     16     17
     17     18
        </DataArray>
        <DataArray type="Int32" Name="offsets" format="ascii">
      2
      4
      6
      8
     10
     12
     14
     16
     18
     20
     22
     24
     26
     28
     30
     32
     34
     36
        </DataArray>
      </Lines>
    </Piece>
  </PolyData>
</VTKFile>
