<?xml version="1.0"?>
<VTKFile type="PolyData" version="0.1" byte_order="LittleEndian">
  <PolyData>
    <Piece NumberOfPoints="     19" NumberOfVerts="  0" NumberOfLines="     18"
           NumberOfStrips="  0" NumberOfPolys="      0">
      <Points>
        <DataArray type="Float32" NumberOfComponents="3" format="ascii">
                      -5.19379                      -0.26151                      88.53574
                      -5.37114                      -0.49632                      87.20106
                      -5.74785                      -0.87219                      84.51795
                      -6.13340                      -1.20332                      81.82801
                      -6.61785                      -1.58995                      78.46093
                      -7.13693                      -2.19380                      74.43724
                      -7.61935                      -2.92425                      70.43133
                      -8.08996                      -3.65555                      66.42411
                      -8.54311                      -4.38951                      62.41532
                      -8.97631                      -5.12434                      58.40445
                      -9.38777                      -5.85651                      54.39083
                      -9.77388                      -6.58765                      50.37451
                     -10.13293                      -7.31791                      46.35550
                     -10.46399                      -8.04740                      42.33394
                     -10.76453                      -8.77615                      38.30985
                     -10.99121                      -9.38295                      34.95470
                     -11.15843                      -9.87588                      32.27116
                     -11.31389                     -10.42280                      29.59647
                     -11.38840                     -10.65509                      28.25199
        </DataArray>
      </Points>
      <PointData>
        <DataArray type="Float32" Name="TranslationalVelocity" NumberOfComponents="3" format="ascii">
                      -0.01193                       0.77261                      -0.13641
                      -0.02266                       1.47673                      -0.25886
                      -0.03987                       2.89246                      -0.45478
                      -0.05511                       4.31113                      -0.62729
                      -0.07302                       6.08532                      -0.82860
                      -0.10103                       8.20017                      -1.14274
                      -0.13491                      10.30120                      -1.52218
                      -0.16889                      12.39948                      -1.90150
                      -0.20300                      14.49510                      -2.28166
                      -0.23709                      16.58844                      -2.66178
                      -0.27093                      18.68011                      -3.04011
                      -0.30454                      20.77026                      -3.41756
                      -0.33789                      22.85914                      -3.79428
                      -0.37095                      24.94697                      -4.17040
                      -0.40374                      27.03383                      -4.54597
                      -0.43089                      28.77213                      -4.85857
                      -0.45289                      30.16149                      -5.11244
                      -0.47740                      31.54543                      -5.39402
                      -0.48772                      32.24078                      -5.51358
        </DataArray>
        <DataArray type="Float32" Name="RotationalVelocity" NumberOfComponents="3" format="ascii">
                       0.52161                      -0.00000                      -0.04563
                       0.52149                       0.00001                      -0.04562
                       0.52119                       0.00003                      -0.04560
                       0.52080                       0.00006                      -0.04557
                       0.52025                       0.00009                      -0.04555
                       0.51953                       0.00013                      -0.04555
                       0.51881                       0.00015                      -0.04560
                       0.51812                       0.00015                      -0.04569
                       0.51749                       0.00013                      -0.04583
                       0.51693                       0.00008                      -0.04600
                       0.51645                       0.00001                      -0.04619
                       0.51603                      -0.00008                      -0.04638
                       0.51569                      -0.00017                      -0.04657
                       0.51541                      -0.00026                      -0.04672
                       0.51519                      -0.00034                      -0.04681
                       0.51505                      -0.00039                      -0.04684
                       0.51497                      -0.00040                      -0.04681
                       0.51492                      -0.00039                      -0.04674
                       0.51491                      -0.00037                      -0.04668
        </DataArray>
        <DataArray type="Float32" Name="TranslationalAcceleration" NumberOfComponents="3" format="ascii">
                       0.03526                       0.07170                       0.40300
                       0.04260                       0.08563                       0.48735
                       0.12205                       0.21850                       1.39821
                       0.19486                       0.32506                       2.23702
                       0.27916                       0.43673                       3.21621
                       0.37304                       0.59488                       4.32094
                       0.46230                       0.77855                       5.38871
                       0.54964                       0.95772                       6.45097
                       0.63632                       1.13526                       7.52135
                       0.72291                       1.31153                       8.60448
                       0.80950                       1.48538                       9.69842
                       0.89587                       1.65644                      10.79706
                       0.98177                       1.82379                      11.89300
                       1.06709                       1.98679                      12.98014
                       1.15212                       2.14551                      14.05627
                       1.22339                       2.27537                      14.94747
                       1.28121                       2.38086                      15.66108
                       1.34023                       2.50186                      16.38027
                       1.37083                       2.55217                      16.74682
        </DataArray>
        <DataArray type="Float32" Name="OrientationX" NumberOfComponents="3" format="ascii">
                       0.99150                      -0.00761                      -0.12986
                       0.99153                      -0.00757                      -0.12966
                       0.99161                      -0.00746                      -0.12903
                       0.99173                      -0.00729                      -0.12812
                       0.99193                      -0.00700                      -0.12661
                       0.99223                      -0.00653                      -0.12426
                       0.99260                      -0.00592                      -0.12130
                       0.99304                      -0.00521                      -0.11766
                       0.99355                      -0.00440                      -0.11328
                       0.99413                      -0.00353                      -0.10810
                       0.99477                      -0.00262                      -0.10210
                       0.99544                      -0.00171                      -0.09535
                       0.99612                      -0.00083                      -0.08798
                       0.99677                      -0.00003                      -0.08026
                       0.99736                       0.00068                      -0.07260
                       0.99778                       0.00117                      -0.06664
                       0.99805                       0.00149                      -0.06247
                       0.99825                       0.00174                      -0.05912
                       0.99832                       0.00184                      -0.05785
        </DataArray>
        <DataArray type="Float32" Name="OrientationY" NumberOfComponents="3" format="ascii">
                       0.01521                      -0.98466                       0.17384
                       0.01521                      -0.98467                       0.17378
                       0.01519                      -0.98469                       0.17363
                       0.01516                      -0.98473                       0.17342
                       0.01515                      -0.98478                       0.17312
                       0.01515                      -0.98486                       0.17271
                       0.01518                      -0.98493                       0.17229
                       0.01520                      -0.98500                       0.17188
                       0.01519                      -0.98507                       0.17148
                       0.01511                      -0.98513                       0.17112
                       0.01494                      -0.98519                       0.17080
                       0.01464                      -0.98524                       0.17053
                       0.01422                      -0.98529                       0.17029
                       0.01367                      -0.98533                       0.17011
                       0.01304                      -0.98536                       0.16996
                       0.01250                      -0.98539                       0.16987
                       0.01210                      -0.98540                       0.16983
                       0.01178                      -0.98541                       0.16982
                       0.01165                      -0.98541                       0.16982
        </DataArray>
        <DataArray type="Float32" Name="OrientationZ" NumberOfComponents="3" format="ascii">
                      -0.12919                      -0.17434                      -0.97617
                      -0.12899                      -0.17428                      -0.97621
                      -0.12835                      -0.17413                      -0.97632
                      -0.12743                      -0.17393                      -0.97648
                      -0.12589                      -0.17364                      -0.97673
                      -0.12351                      -0.17325                      -0.97710
                      -0.12049                      -0.17286                      -0.97755
                      -0.11679                      -0.17247                      -0.97807
                      -0.11234                      -0.17210                      -0.97865
                      -0.10709                      -0.17175                      -0.97930
                      -0.10104                      -0.17144                      -0.98000
                      -0.09423                      -0.17115                      -0.98073
                      -0.08683                      -0.17088                      -0.98146
                      -0.07909                      -0.17065                      -0.98215
                      -0.07142                      -0.17046                      -0.98277
                      -0.06547                      -0.17033                      -0.98321
                      -0.06131                      -0.17026                      -0.98349
                      -0.05796                      -0.17022                      -0.98370
                      -0.05669                      -0.17021                      -0.98378
        </DataArray>
        <DataArray type="Float32" Name="Force" NumberOfComponents="3" format="ascii">
                       0.01783                      -1.15406                       0.20375
                     117.10208                     -22.61454                     -11.43427
                     136.64445                     -45.71602                      -9.80039
                     110.73833                     -51.83960                      -5.19420
                    1021.07552                      97.03504                    -148.93915
                    1053.05752                      85.26287                    -148.33398
                    1191.73598                      96.33903                    -164.09329
                    1111.74373                      79.73688                    -146.99150
                    1037.10251                      57.11143                    -129.24890
                    1117.45044                      73.21966                    -135.26387
                    1141.32784                     103.19297                    -136.06246
                    1321.98323                     188.68482                    -160.62000
                    1624.70700                     285.44046                    -194.52119
                    1814.65695                     332.11789                    -205.17098
                    1922.09049                     349.00896                    -201.68045
                    1944.52997                     344.15542                    -190.56547
                    1907.92177                     333.23675                    -178.04861
                    1403.93251                     241.38366                    -125.53411
                     438.57530                      -3.88211                     -24.57649
        </DataArray>
        <DataArray type="Float32" Name="Moment" NumberOfComponents="3" format="ascii">
                       0.00000                       0.00000                       0.00000
                       0.00000                       0.00000                       0.00000
                       0.00000                       0.00000                       0.00000
                       0.00000                       0.00000                       0.00000
                      76.62456                     106.13711                     594.46073
                      85.30045                     120.45637                     674.80651
                      84.19266                     121.88832                     683.01405
                      85.07313                     127.08548                     712.37395
                      80.24668                     124.64673                     698.98306
                      72.85852                     118.74099                     666.17911
                      56.00547                      96.76435                     543.17706
                      46.92197                      86.93909                     488.32111
                      37.87019                      76.16048                     428.06258
                      30.97291                      68.38876                     384.64667
                      25.98450                      63.53460                     357.58901
                      22.75794                      60.70734                     341.85758
                      18.88865                      53.80674                     303.11080
                       8.98523                      27.07002                     152.53951
                       7.85166                      24.18453                     136.29514
        </DataArray>
      </PointData>
      <Lines>
        <DataArray type="Int32" Name="connectivity" format="ascii">
      0      1
      1      2
      2      3
      3      4
      4      5
      5      6
      6      7
      7      8
      8      9
      9     10
     10     11
     11     12
     12     13
     13     14
     14     15
     15     16
     16     17
     17     18
        </DataArray>
        <DataArray type="Int32" Name="offsets" format="ascii">
      2
      4
      6
      8
     10
     12
     14
     16
     18
     20
     22
     24
     26
     28
     30
     32
     34
     36
        </DataArray>
      </Lines>
    </Piece>
  </PolyData>
</VTKFile>
