<?xml version="1.0"?>
<VTKFile type="PolyData" version="0.1" byte_order="LittleEndian">
  <PolyData>
    <Piece NumberOfPoints="     19" NumberOfVerts="  0" NumberOfLines="     18"
           NumberOfStrips="  0" NumberOfPolys="      0">
      <Points>
        <DataArray type="Float32" NumberOfComponents="3" format="ascii">
                      -5.09019                      -1.47084                      89.71983
                      -5.17342                      -2.81025                      89.46098
                      -5.36866                      -5.46965                      88.85152
                      -5.57595                      -8.11964                      88.19725
                      -5.83956                     -11.42619                      87.35055
                      -6.08355                     -15.42305                      86.46415
                      -6.28168                     -19.44553                      85.69641
                      -6.46767                     -23.46799                      84.92497
                      -6.63550                     -27.49095                      84.15136
                      -6.78255                     -31.51407                      83.37393
                      -6.90697                     -35.53663                      82.58948
                      -7.00475                     -39.55894                      81.79974
                      -7.07387                     -43.58094                      81.00517
                      -7.11314                     -47.60252                      80.20620
                      -7.11979                     -51.62347                      79.40292
                      -7.09980                     -54.97356                      78.73040
                      -7.06796                     -57.65457                      78.19827
                      -7.01934                     -60.34606                      77.71828
                      -6.99442                     -61.68299                      77.43708
        </DataArray>
      </Points>
      <PointData>
        <DataArray type="Float32" Name="TranslationalVelocity" NumberOfComponents="3" format="ascii">
                      -0.06712                       0.15026                      -0.76720
                      -0.12824                       0.28906                      -1.46584
                      -0.24965                       0.61586                      -2.85304
                      -0.37070                       0.96660                      -4.23540
                      -0.52187                       1.42034                      -5.96039
                      -0.70488                       1.89398                      -8.04577
                      -0.88945                       2.30371                     -10.14487
                      -1.07454                       2.71491                     -12.24437
                      -1.26028                       3.12651                     -14.34456
                      -1.44678                       3.53925                     -16.44527
                      -1.63410                       3.95471                     -18.54612
                      -1.82234                       4.37177                     -20.64726
                      -2.01156                       4.79010                     -22.74861
                      -2.20175                       5.20940                     -24.85006
                      -2.39289                       5.62946                     -26.95141
                      -2.55284                       5.97994                     -28.70230
                      -2.68122                       6.25650                     -30.10353
                      -2.81039                       6.50499                     -31.51023
                      -2.87464                       6.65074                     -32.20896
        </DataArray>
        <DataArray type="Float32" Name="RotationalVelocity" NumberOfComponents="3" format="ascii">
                       0.52161                      -0.00000                      -0.04563
                       0.52161                       0.00000                      -0.04564
                       0.52163                       0.00000                      -0.04566
                       0.52166                       0.00001                      -0.04569
                       0.52172                       0.00001                      -0.04574
                       0.52180                       0.00003                      -0.04582
                       0.52189                       0.00005                      -0.04593
                       0.52198                       0.00007                      -0.04606
                       0.52208                       0.00010                      -0.04622
                       0.52218                       0.00012                      -0.04641
                       0.52228                       0.00013                      -0.04663
                       0.52236                       0.00013                      -0.04687
                       0.52244                       0.00013                      -0.04712
                       0.52251                       0.00012                      -0.04737
                       0.52255                       0.00011                      -0.04761
                       0.52258                       0.00010                      -0.04778
                       0.52260                       0.00010                      -0.04789
                       0.52260                       0.00011                      -0.04795
                       0.52260                       0.00012                      -0.04797
        </DataArray>
        <DataArray type="Float32" Name="TranslationalAcceleration" NumberOfComponents="3" format="ascii">
                       0.00686                       0.40324                       0.07837
                       0.00831                       0.48749                       0.09537
                       0.02584                       1.39041                       0.29583
                       0.04276                       2.21908                       0.49010
                       0.06246                       3.18708                       0.71972
                       0.08020                       4.29793                       0.93299
                       0.09292                       5.38954                       1.09079
                       0.10437                       6.48163                       1.23109
                       0.11538                       7.58785                       1.35553
                       0.12679                       8.71238                       1.46545
                       0.13946                       9.85265                       1.56190
                       0.15404                      11.00218                       1.64418
                       0.17110                      12.15305                       1.71213
                       0.19106                      13.29855                       1.76623
                       0.21412                      14.43596                       1.80797
                       0.23575                      15.38010                       1.83530
                       0.25445                      16.13741                       1.85218
                       0.27431                      16.90370                       1.85326
                       0.28454                      17.29204                       1.86605
        </DataArray>
        <DataArray type="Float32" Name="OrientationX" NumberOfComponents="3" format="ascii">
                       0.99452                      -0.04281                      -0.09539
                       0.99453                      -0.04260                      -0.09536
                       0.99457                      -0.04195                      -0.09525
                       0.99462                      -0.04099                      -0.09509
                       0.99471                      -0.03941                      -0.09486
                       0.99484                      -0.03693                      -0.09453
                       0.99498                      -0.03378                      -0.09415
                       0.99515                      -0.02992                      -0.09366
                       0.99534                      -0.02528                      -0.09301
                       0.99555                      -0.01979                      -0.09215
                       0.99576                      -0.01347                      -0.09102
                       0.99596                      -0.00638                      -0.08959
                       0.99613                       0.00133                      -0.08786
                       0.99626                       0.00938                      -0.08586
                       0.99634                       0.01735                      -0.08370
                       0.99636                       0.02355                      -0.08188
                       0.99636                       0.02789                      -0.08051
                       0.99636                       0.03140                      -0.07930
                       0.99635                       0.03274                      -0.07879
        </DataArray>
        <DataArray type="Float32" Name="OrientationY" NumberOfComponents="3" format="ascii">
                       0.08554                      -0.19149                       0.97776
                       0.08554                      -0.19170                       0.97772
                       0.08552                      -0.19223                       0.97762
                       0.08550                      -0.19290                       0.97749
                       0.08552                      -0.19386                       0.97730
                       0.08560                      -0.19509                       0.97704
                       0.08576                      -0.19632                       0.97678
                       0.08597                      -0.19749                       0.97653
                       0.08619                      -0.19856                       0.97629
                       0.08638                      -0.19949                       0.97608
                       0.08649                      -0.20031                       0.97591
                       0.08649                      -0.20100                       0.97577
                       0.08632                      -0.20158                       0.97566
                       0.08598                      -0.20206                       0.97559
                       0.08548                      -0.20246                       0.97555
                       0.08496                      -0.20273                       0.97554
                       0.08450                      -0.20290                       0.97555
                       0.08404                      -0.20301                       0.97556
                       0.08382                      -0.20304                       0.97558
        </DataArray>
        <DataArray type="Float32" Name="OrientationZ" NumberOfComponents="3" format="ascii">
                      -0.06013                      -0.98056                      -0.18678
                      -0.05994                      -0.98053                      -0.18700
                      -0.05932                      -0.98045                      -0.18760
                      -0.05841                      -0.98036                      -0.18836
                      -0.05690                      -0.98024                      -0.18946
                      -0.05452                      -0.98009                      -0.19092
                      -0.05148                      -0.97996                      -0.19244
                      -0.04772                      -0.97985                      -0.19396
                      -0.04314                      -0.97976                      -0.19545
                      -0.03770                      -0.97970                      -0.19690
                      -0.03138                      -0.97964                      -0.19829
                      -0.02423                      -0.97957                      -0.19963
                      -0.01641                      -0.97947                      -0.20091
                      -0.00820                      -0.97933                      -0.20212
                      -0.00002                      -0.97914                      -0.20321
                       0.00637                      -0.97895                      -0.20400
                       0.01088                      -0.97880                      -0.20452
                       0.01453                      -0.97867                      -0.20491
                       0.01595                      -0.97862                      -0.20504
        </DataArray>
        <DataArray type="Float32" Name="Force" NumberOfComponents="3" format="ascii">
                       0.30417                      -0.68091                       3.47669
                     159.48466                     -13.10060                      17.61237
                     180.95531                     -18.76522                      41.09035
                     146.81624                     -18.15739                      49.46589
                    1248.89314                     -25.05741                    -247.08096
                    1245.20416                     -25.35136                    -227.58160
                    1384.39873                     -23.92164                    -251.69002
                    1271.99161                     -19.47977                    -217.68171
                    1177.94968                     -16.69722                    -178.93271
                    1247.59283                     -10.17062                    -191.53629
                    1231.03279                      -0.97870                    -193.76357
                    1381.68280                      21.23706                    -279.62432
                    1598.69660                      51.38183                    -394.30786
                    1844.94801                      81.88722                    -489.57364
                    2015.70839                     108.80135                    -545.47078
                    2095.59679                     126.32377                    -562.94870
                    2057.68168                     132.26770                    -545.32241
                    1499.38263                     100.48706                    -389.12754
                     448.80050                      13.64365                     -29.84703
        </DataArray>
        <DataArray type="Float32" Name="Moment" NumberOfComponents="3" format="ascii">
                       0.00000                       0.00000                       0.00000
                       0.00000                       0.00000                       0.00000
                       0.00000                       0.00000                       0.00000
                       0.00000                       0.00000                       0.00000
                      43.50880                     752.61626                     143.59351
                      45.61260                     825.26448                     157.63762
                      42.73787                     820.96827                     157.04771
                      40.46791                     841.13996                     161.19693
                      35.40718                     816.79862                     156.87243
                      29.38351                     779.12491                     150.02104
                      20.11560                     644.89309                     124.54255
                      14.03838                     588.77275                     114.08305
                       8.79572                     555.85164                     108.09412
                       3.40459                     459.21541                      89.63956
                      -0.39379                     412.30221                      80.78392
                      -2.71608                     362.50920                      71.23512
                      -3.88233                     320.96741                      63.20119
                      -2.57930                     162.92270                      32.13410
                      -2.45924                     142.35901                      28.09619
        </DataArray>
      </PointData>
      <Lines>
        <DataArray type="Int32" Name="connectivity" format="ascii">
      0      1
      1      2
      2      3
      3      4
      4      5
      5      6
      6      7
      7      8
      8      9
      9     10
     10     11
     11     12
     12     13
     13     14
     14     15
     15     16
     16     17
     17     18
        </DataArray>
        <DataArray type="Int32" Name="offsets" format="ascii">
      2
      4
      6
      8
     10
     12
     14
     16
     18
     20
     22
     24
     26
     28
     30
     32
     34
     36
        </DataArray>
      </Lines>
    </Piece>
  </PolyData>
</VTKFile>
