<?xml version="1.0"?>
<VTKFile type="PolyData" version="0.1" byte_order="LittleEndian">
  <PolyData>
    <Piece NumberOfPoints="     19" NumberOfVerts="  0" NumberOfLines="     18"
           NumberOfStrips="  0" NumberOfPolys="      0">
      <Points>
        <DataArray type="Float32" NumberOfComponents="3" format="ascii">
                      -5.05010                      -1.48855                      90.17807
                      -5.09681                      -2.84523                      90.33667
                      -5.21915                      -5.56862                      90.56054
                      -5.35363                      -8.29689                      90.73870
                      -5.52632                     -11.71042                      90.93178
                      -5.66105                     -15.79320                      91.29500
                      -5.74983                     -19.86341                      91.77824
                      -5.82652                     -23.93448                      92.25722
                      -5.88504                     -28.00628                      92.73353
                      -5.92273                     -32.07892                      93.20549
                      -5.93770                     -36.15263                      93.66987
                      -5.92584                     -40.22705                      94.12844
                      -5.88509                     -44.30195                      94.58168
                      -5.81415                     -48.37704                      95.03001
                      -5.71022                     -52.45199                      95.47352
                      -5.59772                     -55.84741                      95.83955
                      -5.49161                     -58.56245                      96.13808
                      -5.36836                     -61.27136                      96.48932
                      -5.30613                     -62.62980                      96.62295
        </DataArray>
      </Points>
      <PointData>
        <DataArray type="Float32" Name="TranslationalVelocity" NumberOfComponents="3" format="ascii">
                      -0.06793                      -0.09059                      -0.77644
                      -0.12984                      -0.17120                      -1.48412
                      -0.25409                      -0.28243                      -2.90489
                      -0.37852                      -0.36928                      -4.32848
                      -0.53414                      -0.46218                      -6.11009
                      -0.72010                      -0.64564                      -8.24173
                      -0.90528                      -0.89396                     -10.36767
                      -1.09025                      -1.14073                     -12.49493
                      -1.27497                      -1.38703                     -14.62342
                      -1.45947                      -1.63212                     -16.75315
                      -1.64376                      -1.87437                     -18.88414
                      -1.82790                      -2.11487                     -21.01612
                      -2.01198                      -2.35395                     -23.14884
                      -2.19610                      -2.59188                     -25.28203
                      -2.38043                      -2.82882                     -27.41542
                      -2.53436                      -3.02559                     -29.19318
                      -2.65777                      -3.18674                     -30.61475
                      -2.78127                      -3.37627                     -32.03314
                      -2.84338                      -3.44908                     -32.74441
        </DataArray>
        <DataArray type="Float32" Name="RotationalVelocity" NumberOfComponents="3" format="ascii">
                       0.52161                       0.00000                      -0.04563
                       0.52163                       0.00000                      -0.04563
                       0.52171                       0.00000                      -0.04562
                       0.52182                       0.00000                      -0.04560
                       0.52197                       0.00001                      -0.04558
                       0.52217                       0.00003                      -0.04553
                       0.52238                       0.00006                      -0.04548
                       0.52259                       0.00009                      -0.04541
                       0.52278                       0.00012                      -0.04535
                       0.52295                       0.00014                      -0.04529
                       0.52311                       0.00016                      -0.04524
                       0.52324                       0.00016                      -0.04521
                       0.52335                       0.00015                      -0.04520
                       0.52343                       0.00013                      -0.04522
                       0.52350                       0.00010                      -0.04529
                       0.52353                       0.00008                      -0.04538
                       0.52354                       0.00009                      -0.04549
                       0.52354                       0.00011                      -0.04563
                       0.52353                       0.00012                      -0.04572
        </DataArray>
        <DataArray type="Float32" Name="TranslationalAcceleration" NumberOfComponents="3" format="ascii">
                      -0.00413                       0.40809                      -0.04725
                      -0.00487                       0.49366                      -0.05580
                      -0.01144                       1.41568                      -0.13139
                      -0.01580                       2.26522                      -0.18246
                      -0.01916                       3.25842                      -0.22441
                      -0.02474                       4.38518                      -0.29600
                      -0.03177                       5.48162                      -0.38741
                      -0.03754                       6.57709                      -0.46640
                      -0.04241                       7.68526                      -0.53522
                      -0.04662                       8.81043                      -0.59442
                      -0.05032                       9.95006                      -0.64364
                      -0.05372                      11.09747                      -0.68369
                      -0.05698                      12.24463                      -0.71504
                      -0.06015                      13.38487                      -0.73833
                      -0.06324                      14.51555                      -0.75466
                      -0.06568                      15.45314                      -0.76414
                      -0.06776                      16.20475                      -0.77237
                      -0.07143                      16.96450                      -0.79545
                      -0.07182                      17.35016                      -0.79576
        </DataArray>
        <DataArray type="Float32" Name="OrientationX" NumberOfComponents="3" format="ascii">
                       0.99569                      -0.04333                      -0.08206
                       0.99569                      -0.04312                      -0.08209
                       0.99571                      -0.04246                      -0.08218
                       0.99574                      -0.04151                      -0.08233
                       0.99578                      -0.03993                      -0.08260
                       0.99584                      -0.03747                      -0.08306
                       0.99590                      -0.03436                      -0.08368
                       0.99596                      -0.03053                      -0.08443
                       0.99602                      -0.02589                      -0.08529
                       0.99607                      -0.02038                      -0.08621
                       0.99610                      -0.01397                      -0.08715
                       0.99609                      -0.00673                      -0.08803
                       0.99605                       0.00122                      -0.08882
                       0.99595                       0.00957                      -0.08944
                       0.99579                       0.01793                      -0.08987
                       0.99564                       0.02448                      -0.09004
                       0.99551                       0.02911                      -0.09004
                       0.99541                       0.03289                      -0.08993
                       0.99536                       0.03437                      -0.08982
        </DataArray>
        <DataArray type="Float32" Name="OrientationY" NumberOfComponents="3" format="ascii">
                       0.08657                       0.11546                       0.98953
                       0.08657                       0.11523                       0.98956
                       0.08657                       0.11464                       0.98963
                       0.08658                       0.11389                       0.98971
                       0.08663                       0.11281                       0.98983
                       0.08676                       0.11141                       0.98998
                       0.08699                       0.11000                       0.99012
                       0.08728                       0.10865                       0.99024
                       0.08760                       0.10742                       0.99035
                       0.08790                       0.10632                       0.99044
                       0.08814                       0.10536                       0.99052
                       0.08825                       0.10454                       0.99060
                       0.08821                       0.10384                       0.99067
                       0.08799                       0.10325                       0.99076
                       0.08757                       0.10277                       0.99084
                       0.08709                       0.10245                       0.99092
                       0.08664                       0.10226                       0.99098
                       0.08616                       0.10213                       0.99103
                       0.08591                       0.10210                       0.99106
        </DataArray>
        <DataArray type="Float32" Name="OrientationZ" NumberOfComponents="3" format="ascii">
                      -0.03340                      -0.99237                       0.11871
                      -0.03321                      -0.99240                       0.11847
                      -0.03260                      -0.99250                       0.11782
                      -0.03170                      -0.99263                       0.11699
                      -0.03021                      -0.99281                       0.11579
                      -0.02784                      -0.99307                       0.11419
                      -0.02482                      -0.99334                       0.11254
                      -0.02106                      -0.99361                       0.11088
                      -0.01648                      -0.99388                       0.10926
                      -0.01102                      -0.99412                       0.10769
                      -0.00466                      -0.99434                       0.10618
                       0.00254                      -0.99450                       0.10472
                       0.01043                      -0.99459                       0.10332
                       0.01872                      -0.99461                       0.10199
                       0.02700                      -0.99454                       0.10077
                       0.03348                      -0.99444                       0.09987
                       0.03805                      -0.99433                       0.09928
                       0.04178                      -0.99423                       0.09883
                       0.04323                      -0.99418                       0.09867
        </DataArray>
        <DataArray type="Float32" Name="Force" NumberOfComponents="3" format="ascii">
                       0.31241                       0.41664                       3.57087
                     160.78335                      -2.94926                      20.30346
                     182.39829                      -0.74113                      43.81551
                     145.38299                       1.48378                      51.12902
                    1237.80600                     -64.92036                    -230.78491
                    1248.05409                     -60.13801                    -214.70924
                    1395.81165                     -62.77397                    -240.23468
                    1287.06775                     -51.33688                    -209.33756
                    1194.55343                     -39.33173                    -172.31224
                    1268.52446                     -35.06002                    -187.08207
                    1238.39831                     -25.71180                    -179.40966
                    1382.57619                     -25.68288                    -262.41451
                    1584.98815                     -26.40842                    -386.06531
                    1823.25804                     -19.21103                    -483.09641
                    2015.40115                      -6.84703                    -559.28706
                    2107.51200                       6.57217                    -588.56670
                    2084.04712                      16.64115                    -579.72281
                    1522.14746                      18.70997                    -417.43389
                     446.86780                      16.10730                     -34.36618
        </DataArray>
        <DataArray type="Float32" Name="Moment" NumberOfComponents="3" format="ascii">
                       0.00000                       0.00000                       0.00000
                       0.00000                       0.00000                       0.00000
                       0.00000                       0.00000                       0.00000
                       0.00000                       0.00000                       0.00000
                      22.77247                     754.03179                     -89.97170
                      23.17926                     836.92501                     -99.67915
                      20.57493                     839.03412                     -99.69739
                      17.82069                     864.41347                    -102.41765
                      13.39858                     842.96356                     -99.52802
                       8.31421                     807.37851                     -94.93118
                       2.56269                     672.56233                     -78.69783
                      -2.16633                     616.95770                     -71.79622
                      -6.68558                     580.68925                     -67.16909
                      -9.60732                     482.36338                     -55.44095
                     -12.25976                     433.28737                     -49.48277
                     -13.14532                     377.17727                     -42.85844
                     -13.13723                     332.74943                     -37.67537
                      -7.16772                     165.71993                     -18.70887
                      -6.46051                     144.47508                     -16.29193
        </DataArray>
      </PointData>
      <Lines>
        <DataArray type="Int32" Name="connectivity" format="ascii">
      0      1
      1      2
      2      3
      3      4
      4      5
      5      6
      6      7
      7      8
      8      9
      9     10
     10     11
     11     12
     12     13
     13     14
     14     15
     15     16
     16     17
     17     18
        </DataArray>
        <DataArray type="Int32" Name="offsets" format="ascii">
      2
      4
      6
      8
     10
     12
     14
     16
     18
     20
     22
     24
     26
     28
     30
     32
     34
     36
        </DataArray>
      </Lines>
    </Piece>
  </PolyData>
</VTKFile>
