<?xml version="1.0"?>
<VTKFile type="PolyData" version="0.1" byte_order="LittleEndian">
  <PolyData>
    <Piece NumberOfPoints="     19" NumberOfVerts="  0" NumberOfLines="     18"
           NumberOfStrips="  0" NumberOfPolys="      0">
      <Points>
        <DataArray type="Float32" NumberOfComponents="3" format="ascii">
                      -5.04428                      -1.47925                      90.24464
                      -5.08568                      -2.82763                      90.46393
                      -5.19735                      -5.53869                      90.80976
                      -5.32112                      -8.25673                      91.11020
                      -5.48040                     -11.65879                      91.45640
                      -5.59908                     -15.72164                      92.00277
                      -5.67184                     -19.76633                      92.66865
                      -5.73246                     -23.81198                      93.33051
                      -5.77487                     -27.85838                      93.98992
                      -5.79640                     -31.90571                      94.64520
                      -5.79515                     -35.95431                      95.29311
                      -5.76702                     -40.00377                      95.93541
                      -5.70994                     -44.05380                      96.57251
                      -5.62263                     -48.10410                      97.20483
                      -5.50227                     -52.15433                      97.83240
                      -5.37603                     -55.52920                      98.35185
                      -5.25892                     -58.22748                      98.77307
                      -5.12468                     -60.91717                      99.24668
                      -5.05693                     -62.26789                      99.44172
        </DataArray>
      </Points>
      <PointData>
        <DataArray type="Float32" Name="TranslationalVelocity" NumberOfComponents="3" format="ascii">
                      -0.06751                      -0.12559                      -0.77159
                      -0.12903                      -0.23809                      -1.47490
                      -0.25270                      -0.41339                      -2.88887
                      -0.37663                      -0.56446                      -4.30628
                      -0.53164                      -0.73779                      -6.08004
                      -0.71654                      -1.01733                      -8.19770
                      -0.90035                      -1.36115                     -10.30513
                      -1.08392                      -1.70330                     -12.41222
                      -1.26723                      -2.04486                     -14.51884
                      -1.45030                      -2.38507                     -16.62507
                      -1.63317                      -2.72233                     -18.73110
                      -1.81589                      -3.05774                     -20.83677
                      -1.99853                      -3.39163                     -22.94198
                      -2.18117                      -3.72427                     -25.04666
                      -2.36393                      -4.05584                     -27.15074
                      -2.51643                      -4.33141                     -28.90360
                      -2.63858                      -4.55550                     -30.30487
                      -2.76067                      -4.80755                     -31.70156
                      -2.82204                      -4.91190                     -32.40293
        </DataArray>
        <DataArray type="Float32" Name="RotationalVelocity" NumberOfComponents="3" format="ascii">
                       0.52161                       0.00000                      -0.04563
                       0.52159                       0.00000                      -0.04563
                       0.52153                       0.00000                      -0.04561
                       0.52145                      -0.00000                      -0.04559
                       0.52133                      -0.00001                      -0.04555
                       0.52116                      -0.00003                      -0.04549
                       0.52097                      -0.00007                      -0.04542
                       0.52076                      -0.00013                      -0.04534
                       0.52056                      -0.00022                      -0.04526
                       0.52036                      -0.00035                      -0.04517
                       0.52017                      -0.00049                      -0.04510
                       0.52000                      -0.00066                      -0.04504
                       0.51984                      -0.00084                      -0.04499
                       0.51970                      -0.00101                      -0.04497
                       0.51958                      -0.00116                      -0.04499
                       0.51951                      -0.00123                      -0.04504
                       0.51946                      -0.00125                      -0.04511
                       0.51943                      -0.00121                      -0.04520
                       0.51942                      -0.00117                      -0.04526
        </DataArray>
        <DataArray type="Float32" Name="TranslationalAcceleration" NumberOfComponents="3" format="ascii">
                      -0.00573                       0.40555                      -0.06551
                      -0.00684                       0.49056                      -0.07808
                      -0.01737                       1.40765                      -0.19666
                      -0.02589                       2.25287                      -0.28961
                      -0.03509                       3.24082                      -0.38462
                      -0.04900                       4.35824                      -0.52286
                      -0.06623                       5.44129                      -0.68634
                      -0.08445                       6.52090                      -0.84466
                      -0.10422                       7.61057                      -1.00059
                      -0.12587                       8.71463                      -1.15453
                      -0.14959                       9.83077                      -1.30551
                      -0.17554                      10.95252                      -1.45335
                      -0.20377                      12.07212                      -1.59735
                      -0.23422                      13.18320                      -1.73701
                      -0.26674                      14.28338                      -1.87243
                      -0.29531                      15.19471                      -1.98281
                      -0.31916                      15.92459                      -2.07260
                      -0.34512                      16.66057                      -2.17778
                      -0.35717                      17.03545                      -2.21984
        </DataArray>
        <DataArray type="Float32" Name="OrientationX" NumberOfComponents="3" format="ascii">
                       0.99586                      -0.04306                      -0.08012
                       0.99586                      -0.04285                      -0.08016
                       0.99588                      -0.04220                      -0.08028
                       0.99590                      -0.04125                      -0.08047
                       0.99594                      -0.03968                      -0.08081
                       0.99599                      -0.03724                      -0.08138
                       0.99604                      -0.03416                      -0.08213
                       0.99608                      -0.03036                      -0.08305
                       0.99612                      -0.02575                      -0.08411
                       0.99615                      -0.02028                      -0.08527
                       0.99616                      -0.01391                      -0.08648
                       0.99613                      -0.00670                      -0.08769
                       0.99605                       0.00121                      -0.08883
                       0.99591                       0.00954                      -0.08983
                       0.99572                       0.01788                      -0.09063
                       0.99554                       0.02442                      -0.09111
                       0.99540                       0.02905                      -0.09133
                       0.99527                       0.03284                      -0.09138
                       0.99523                       0.03432                      -0.09135
        </DataArray>
        <DataArray type="Float32" Name="OrientationY" NumberOfComponents="3" format="ascii">
                       0.08603                       0.16005                       0.98335
                       0.08603                       0.15984                       0.98339
                       0.08603                       0.15926                       0.98348
                       0.08604                       0.15853                       0.98360
                       0.08609                       0.15749                       0.98376
                       0.08623                       0.15615                       0.98396
                       0.08646                       0.15479                       0.98416
                       0.08675                       0.15350                       0.98433
                       0.08706                       0.15232                       0.98449
                       0.08736                       0.15126                       0.98463
                       0.08759                       0.15035                       0.98475
                       0.08770                       0.14956                       0.98486
                       0.08766                       0.14889                       0.98496
                       0.08743                       0.14834                       0.98506
                       0.08702                       0.14788                       0.98517
                       0.08655                       0.14757                       0.98526
                       0.08610                       0.14738                       0.98532
                       0.08562                       0.14726                       0.98539
                       0.08537                       0.14723                       0.98541
        </DataArray>
        <DataArray type="Float32" Name="OrientationZ" NumberOfComponents="3" format="ascii">
                      -0.02952                      -0.98617                       0.16309
                      -0.02933                      -0.98621                       0.16286
                      -0.02872                      -0.98633                       0.16224
                      -0.02781                      -0.98649                       0.16143
                      -0.02631                      -0.98672                       0.16027
                      -0.02394                      -0.98703                       0.15873
                      -0.02090                      -0.98736                       0.15713
                      -0.01713                      -0.98768                       0.15553
                      -0.01254                      -0.98800                       0.15397
                      -0.00707                      -0.98829                       0.15245
                      -0.00070                      -0.98854                       0.15099
                       0.00652                      -0.98873                       0.14957
                       0.01442                      -0.98885                       0.14820
                       0.02272                      -0.98889                       0.14690
                       0.03101                      -0.98884                       0.14569
                       0.03750                      -0.98875                       0.14480
                       0.04209                      -0.98865                       0.14421
                       0.04582                      -0.98855                       0.14375
                       0.04727                      -0.98851                       0.14360
        </DataArray>
        <DataArray type="Float32" Name="Force" NumberOfComponents="3" format="ascii">
                       0.30831                       0.57357                       3.52395
                     160.90843                      -1.42177                      20.32058
                     182.60427                       1.92063                      43.70686
                     145.58984                       4.32967                      50.93810
                    1239.50292                     -70.41957                    -227.99127
                    1250.08314                     -64.88934                    -212.19656
                    1398.44350                     -68.11259                    -237.75080
                    1289.51584                     -55.67171                    -207.15302
                    1196.82246                     -42.34989                    -170.61834
                    1270.90086                     -38.42567                    -185.53743
                    1238.22640                     -28.63594                    -177.05829
                    1380.39993                     -31.53546                    -258.60365
                    1579.33875                     -37.08188                    -382.27160
                    1813.00758                     -33.17325                    -477.93750
                    2007.34086                     -23.76690                    -556.51559
                    2100.40068                     -11.44959                    -587.30574
                    2077.07973                      -1.16876                    -579.34893
                    1517.56528                       5.89211                    -418.00210
                     442.39385                      16.20071                     -34.68356
        </DataArray>
        <DataArray type="Float32" Name="Moment" NumberOfComponents="3" format="ascii">
                       0.00000                       0.00000                       0.00000
                       0.00000                       0.00000                       0.00000
                       0.00000                       0.00000                       0.00000
                       0.00000                       0.00000                       0.00000
                      19.86425                     751.04385                    -123.98015
                      19.94919                     833.84513                    -137.46458
                      17.33024                     836.15167                    -137.61087
                      14.46767                     861.70038                    -141.51881
                      10.11118                     840.37232                    -137.66625
                       5.14543                     805.01348                    -131.47669
                      -0.09779                     671.35495                    -109.26328
                      -4.63714                     616.35224                     -99.91373
                      -9.03321                     579.54874                     -93.53887
                     -11.70808                     486.72538                     -78.19663
                     -14.01770                     431.36307                     -68.98362
                     -14.71419                     376.28898                     -59.95865
                     -14.42241                     329.52019                     -52.37194
                      -7.78271                     163.61166                     -25.94905
                      -6.97898                     142.29819                     -22.55032
        </DataArray>
      </PointData>
      <Lines>
        <DataArray type="Int32" Name="connectivity" format="ascii">
      0      1
      1      2
      2      3
      3      4
      4      5
      5      6
      6      7
      7      8
      8      9
      9     10
     10     11
     11     12
     12     13
     13     14
     14     15
     15     16
     16     17
     17     18
        </DataArray>
        <DataArray type="Int32" Name="offsets" format="ascii">
      2
      4
      6
      8
     10
     12
     14
     16
     18
     20
     22
     24
     26
     28
     30
     32
     34
     36
        </DataArray>
      </Lines>
    </Piece>
  </PolyData>
</VTKFile>
