<?xml version="1.0"?>
<VTKFile type="PolyData" version="0.1" byte_order="LittleEndian">
  <PolyData>
    <Piece NumberOfPoints="     19" NumberOfVerts="  0" NumberOfLines="     18"
           NumberOfStrips="  0" NumberOfPolys="      0">
      <Points>
        <DataArray type="Float32" NumberOfComponents="3" format="ascii">
                      -5.14593                       1.17783                      89.08271
                      -5.27941                       2.25298                      88.24953
                      -5.56064                       4.46061                      86.65909
                      -5.84717                       6.69509                      85.10366
                      -6.20598                       9.50389                      83.17882
                      -6.58681                      12.78626                      80.74788
                      -6.94262                      15.98717                      78.20898
                      -7.28779                      19.18484                      75.66455
                      -7.61697                      22.37843                      73.11293
                      -7.92766                      25.56933                      70.55574
                      -8.21784                      28.76007                      67.99611
                      -8.48411                      31.94997                      65.43294
                      -8.72481                      35.13920                      62.86652
                      -8.93898                      38.32790                      60.29713
                      -9.12405                      41.51609                      57.72493
                      -9.25552                      44.17241                      55.57935
                      -9.34779                      46.29201                      53.85562
                      -9.43336                      48.37673                      52.08808
                      -9.46957                      49.44474                      51.23647
        </DataArray>
      </Points>
      <PointData>
        <DataArray type="Float32" Name="TranslationalVelocity" NumberOfComponents="3" format="ascii">
                       0.05375                       0.48513                       0.61436
                       0.10278                       0.92571                       1.17506
                       0.20321                       1.76747                       2.32573
                       0.30446                       2.59056                       3.48943
                       0.43101                       3.60821                       4.95055
                       0.57765                       4.88832                       6.65543
                       0.71906                       6.22104                       8.31514
                       0.85857                       7.55366                       9.97031
                       0.99596                       8.88685                      11.62062
                       1.13111                      10.21980                      13.26699
                       1.26396                      11.55104                      14.91100
                       1.39430                      12.88124                      16.55261
                       1.52193                      14.21049                      18.19223
                       1.64664                      15.53889                      19.83026
                       1.76818                      16.86655                      21.46703
                       1.86675                      17.97248                      22.83012
                       1.94353                      18.86017                      23.91752
                       2.01687                      19.76986                      24.98682
                       2.05406                      20.20788                      25.53453
        </DataArray>
        <DataArray type="Float32" Name="RotationalVelocity" NumberOfComponents="3" format="ascii">
                       0.52161                      -0.00000                      -0.04563
                       0.52148                       0.00002                      -0.04560
                       0.52113                       0.00007                      -0.04550
                       0.52068                       0.00015                      -0.04536
                       0.52001                       0.00030                      -0.04516
                       0.51913                       0.00056                      -0.04491
                       0.51823                       0.00089                      -0.04466
                       0.51734                       0.00129                      -0.04441
                       0.51650                       0.00174                      -0.04415
                       0.51575                       0.00223                      -0.04386
                       0.51508                       0.00273                      -0.04353
                       0.51450                       0.00324                      -0.04313
                       0.51401                       0.00374                      -0.04266
                       0.51362                       0.00425                      -0.04212
                       0.51332                       0.00477                      -0.04152
                       0.51314                       0.00522                      -0.04100
                       0.51305                       0.00561                      -0.04060
                       0.51301                       0.00604                      -0.04023
                       0.51301                       0.00628                      -0.04007
        </DataArray>
        <DataArray type="Float32" Name="TranslationalAcceleration" NumberOfComponents="3" format="ascii">
                       0.02214                      -0.32291                       0.25305
                       0.02688                      -0.39072                       0.30542
                       0.07734                      -1.13210                       0.85414
                       0.12560                      -1.81958                       1.34881
                       0.18492                      -2.62342                       1.92124
                       0.25906                      -3.50655                       2.60517
                       0.33656                      -4.33474                       3.30405
                       0.41479                      -5.14999                       4.00705
                       0.49368                      -5.96316                       4.72266
                       0.57394                      -6.77872                       5.45252
                       0.65772                      -7.59645                       6.19349
                       0.74945                      -8.41223                       6.94081
                       0.85638                      -9.22125                       7.68843
                       0.98923                     -10.01980                       8.43101
                       1.16284                     -10.80725                       9.16579
                       1.35395                     -11.45795                       9.77298
                       1.54668                     -11.97760                      10.25921
                       1.79096                     -12.49341                      10.75845
                       1.92744                     -12.76323                      11.00301
        </DataArray>
        <DataArray type="Float32" Name="OrientationX" NumberOfComponents="3" format="ascii">
                       0.99290                       0.03428                      -0.11394
                       0.99291                       0.03413                      -0.11382
                       0.99297                       0.03365                      -0.11346
                       0.99306                       0.03295                      -0.11292
                       0.99319                       0.03179                      -0.11205
                       0.99340                       0.02999                      -0.11068
                       0.99366                       0.02771                      -0.10896
                       0.99396                       0.02490                      -0.10686
                       0.99431                       0.02150                      -0.10436
                       0.99469                       0.01745                      -0.10144
                       0.99510                       0.01274                      -0.09810
                       0.99551                       0.00740                      -0.09438
                       0.99591                       0.00155                      -0.09037
                       0.99627                      -0.00461                      -0.08621
                       0.99657                      -0.01076                      -0.08211
                       0.99676                      -0.01556                      -0.07892
                       0.99687                      -0.01893                      -0.07669
                       0.99696                      -0.02166                      -0.07489
                       0.99699                      -0.02270                      -0.07420
        </DataArray>
        <DataArray type="Float32" Name="OrientationY" NumberOfComponents="3" format="ascii">
                      -0.06850                      -0.61827                      -0.78297
                      -0.06849                      -0.61838                      -0.78289
                      -0.06846                      -0.61866                      -0.78267
                      -0.06843                      -0.61900                      -0.78240
                      -0.06840                      -0.61949                      -0.78202
                      -0.06836                      -0.62009                      -0.78154
                      -0.06834                      -0.62068                      -0.78108
                      -0.06836                      -0.62122                      -0.78065
                      -0.06845                      -0.62168                      -0.78027
                      -0.06862                      -0.62206                      -0.77996
                      -0.06890                      -0.62236                      -0.77969
                      -0.06927                      -0.62259                      -0.77947
                      -0.06975                      -0.62276                      -0.77930
                      -0.07031                      -0.62288                      -0.77915
                      -0.07091                      -0.62297                      -0.77903
                      -0.07140                      -0.62302                      -0.77894
                      -0.07175                      -0.62306                      -0.77887
                      -0.07204                      -0.62309                      -0.77882
                      -0.07215                      -0.62311                      -0.77880
        </DataArray>
        <DataArray type="Float32" Name="OrientationZ" NumberOfComponents="3" format="ascii">
                      -0.09729                       0.78522                      -0.61153
                      -0.09711                       0.78514                      -0.61166
                      -0.09653                       0.78494                      -0.61201
                      -0.09568                       0.78470                      -0.61245
                      -0.09427                       0.78436                      -0.61310
                      -0.09207                       0.78395                      -0.61395
                      -0.08927                       0.78357                      -0.61485
                      -0.08583                       0.78324                      -0.61576
                      -0.08165                       0.78298                      -0.61667
                      -0.07671                       0.78277                      -0.61756
                      -0.07098                       0.78263                      -0.61843
                      -0.06453                       0.78251                      -0.61928
                      -0.05749                       0.78241                      -0.62010
                      -0.05010                       0.78230                      -0.62088
                      -0.04277                       0.78217                      -0.62159
                      -0.03705                       0.78205                      -0.62212
                      -0.03304                       0.78194                      -0.62247
                      -0.02980                       0.78185                      -0.62276
                      -0.02855                       0.78181                      -0.62287
        </DataArray>
        <DataArray type="Float32" Name="Force" NumberOfComponents="3" format="ascii">
                       0.00046                       0.00414                       0.00524
                     134.84214                       2.56778                     -18.11219
                     159.52363                      -8.25106                     -35.76136
                     127.31843                     -17.38268                     -42.21504
                    1020.19897                      96.36762                     -33.32389
                    1064.82835                      89.26575                     -45.35375
                    1196.76210                      98.18477                     -48.11299
                    1166.32837                      85.20221                     -53.63503
                    1082.98613                      59.56601                     -67.35957
                    1112.77458                      60.17408                     -61.44061
                    1076.42778                      57.86009                     -49.73590
                    1222.40176                      99.54209                      -0.30415
                    1511.93438                     164.53195                      69.83837
                    1795.13372                     189.32703                      96.68478
                    1856.53763                     195.80666                     121.98564
                    1978.45527                     198.81299                     135.68148
                    1895.19092                     175.55465                     123.27244
                    1402.65618                     122.26475                      88.80815
                     412.34473                     -11.98057                     -33.99779
        </DataArray>
        <DataArray type="Float32" Name="Moment" NumberOfComponents="3" format="ascii">
                       0.00000                       0.00000                       0.00000
                       0.00000                       0.00000                       0.00000
                       0.00000                       0.00000                       0.00000
                       0.00000                       0.00000                       0.00000
                      68.79552                    -573.72627                     447.02106
                      71.67591                    -612.46801                     477.36127
                      67.93115                    -599.09829                     467.13157
                      73.72212                    -676.80807                     527.98803
                      66.60022                    -643.15442                     502.03669
                      55.27998                    -568.69184                     444.22810
                      41.80896                    -465.19608                     363.68180
                      34.55342                    -423.31258                     331.24349
                      30.23082                    -416.16798                     325.97997
                      26.34375                    -416.60074                     326.66178
                      15.90366                    -295.09068                     231.62539
                      12.98694                    -278.59855                     218.85765
                       9.90489                    -238.64049                     187.57463
                       4.84354                    -129.58312                     101.90086
                       3.62870                    -101.37962                      79.73640
        </DataArray>
      </PointData>
      <Lines>
        <DataArray type="Int32" Name="connectivity" format="ascii">
      0      1
      1      2
      2      3
      3      4
      4      5
      5      6
      6      7
      7      8
      8      9
      9     10
     10     11
     11     12
     12     13
     13     14
     14     15
     15     16
     16     17
     17     18
        </DataArray>
        <DataArray type="Int32" Name="offsets" format="ascii">
      2
      4
      6
      8
     10
     12
     14
     16
     18
     20
     22
     24
     26
     28
     30
     32
     34
     36
        </DataArray>
      </Lines>
    </Piece>
  </PolyData>
</VTKFile>
