<?xml version="1.0"?>
<VTKFile type="PolyData" version="0.1" byte_order="LittleEndian">
  <PolyData>
    <Piece NumberOfPoints="     19" NumberOfVerts="  0" NumberOfLines="     18"
           NumberOfStrips="  0" NumberOfPolys="      0">
      <Points>
        <DataArray type="Float32" NumberOfComponents="3" format="ascii">
                      -5.16743                      -0.93237                      88.83697
                      -5.32091                      -1.77904                      87.77510
                      -5.65361                      -3.39691                      85.59474
                      -5.99690                      -4.97837                      83.38682
                      -6.42961                      -6.93243                      80.60925
                      -6.88104                      -9.38822                      77.35545
                      -7.29077                     -11.94378                      74.17548
                      -7.68858                     -14.49856                      70.99326
                      -8.06868                     -17.05418                      67.80942
                      -8.42859                     -19.60934                      64.62280
                      -8.76655                     -22.16140                      61.43128
                      -9.07881                     -24.71183                      58.23579
                      -9.36357                     -27.26088                      55.03659
                      -9.61981                     -29.80872                      51.83397
                      -9.84493                     -32.35537                      48.62804
                     -10.00826                     -34.47666                      45.95415
                     -10.12414                     -36.17925                      43.81874
                     -10.22577                     -37.92457                      41.71621
                     -10.27490                     -38.76406                      40.63919
        </DataArray>
      </Points>
      <PointData>
        <DataArray type="Float32" Name="TranslationalVelocity" NumberOfComponents="3" format="ascii">
                      -0.04255                       0.61429                      -0.48633
                      -0.08117                       1.17507                      -0.92789
                      -0.15498                       2.32694                      -1.77136
                      -0.22710                       3.49303                      -2.59545
                      -0.31616                       4.95896                      -3.61305
                      -0.42800                       6.67212                      -4.89090
                      -0.54432                       8.34330                      -6.21936
                      -0.66062                      10.01348                      -7.54607
                      -0.77710                      11.68218                      -8.87195
                      -0.89382                      13.35006                     -10.19643
                      -1.01085                      15.01832                     -11.51828
                      -1.12842                      16.68650                     -12.83843
                      -1.24671                      18.35457                     -14.15715
                      -1.36591                      20.02250                     -15.47468
                      -1.48618                      21.69022                     -16.79111
                      -1.58734                      23.07972                     -17.88735
                      -1.66919                      24.18852                     -18.76701
                      -1.75364                      25.27946                     -19.66856
                      -1.79456                      25.83806                     -20.10211
        </DataArray>
        <DataArray type="Float32" Name="RotationalVelocity" NumberOfComponents="3" format="ascii">
                       0.52161                      -0.00000                      -0.04563
                       0.52152                       0.00000                      -0.04563
                       0.52130                       0.00001                      -0.04561
                       0.52102                       0.00001                      -0.04558
                       0.52062                       0.00001                      -0.04556
                       0.52010                      -0.00001                      -0.04556
                       0.51958                      -0.00003                      -0.04558
                       0.51909                      -0.00006                      -0.04565
                       0.51864                      -0.00008                      -0.04575
                       0.51824                      -0.00010                      -0.04591
                       0.51790                      -0.00009                      -0.04609
                       0.51760                      -0.00004                      -0.04631
                       0.51735                       0.00004                      -0.04655
                       0.51715                       0.00017                      -0.04679
                       0.51698                       0.00035                      -0.04701
                       0.51686                       0.00054                      -0.04717
                       0.51680                       0.00072                      -0.04726
                       0.51675                       0.00091                      -0.04731
                       0.51674                       0.00101                      -0.04731
        </DataArray>
        <DataArray type="Float32" Name="TranslationalAcceleration" NumberOfComponents="3" format="ascii">
                       0.02803                       0.25561                       0.32042
                       0.03396                       0.30810                       0.38809
                       0.09858                       0.85966                       1.12680
                       0.15881                       1.35302                       1.81529
                       0.22980                       1.91657                       2.62623
                       0.30877                       2.57901                       3.52795
                       0.38398                       3.24481                       4.38734
                       0.45897                       3.90254                       5.24615
                       0.53452                       4.56144                       6.11487
                       0.61082                       5.22427                       6.99716
                       0.68762                       5.88935                       7.89160
                       0.76432                       6.55371                       8.79268
                       0.84032                       7.21324                       9.69407
                       0.91514                       7.86465                      10.59044
                       0.98868                       8.50707                      11.47966
                       1.04929                       9.03763                      12.21724
                       1.09758                       9.46382                      12.80736
                       1.14516                       9.90645                      13.39546
                       1.17035                      10.12188                      13.70043
        </DataArray>
        <DataArray type="Float32" Name="OrientationX" NumberOfComponents="3" format="ascii">
                       0.99227                      -0.02714                      -0.12109
                       0.99229                      -0.02701                      -0.12093
                       0.99237                      -0.02659                      -0.12043
                       0.99247                      -0.02598                      -0.11970
                       0.99264                      -0.02497                      -0.11851
                       0.99289                      -0.02336                      -0.11668
                       0.99321                      -0.02132                      -0.11438
                       0.99358                      -0.01883                      -0.11154
                       0.99401                      -0.01588                      -0.10810
                       0.99450                      -0.01247                      -0.10398
                       0.99504                      -0.00863                      -0.09914
                       0.99560                      -0.00442                      -0.09362
                       0.99616                       0.00004                      -0.08752
                       0.99670                       0.00458                      -0.08104
                       0.99718                       0.00898                      -0.07453
                       0.99751                       0.01233                      -0.06941
                       0.99773                       0.01463                      -0.06579
                       0.99789                       0.01645                      -0.06284
                       0.99795                       0.01713                      -0.06171
        </DataArray>
        <DataArray type="Float32" Name="OrientationY" NumberOfComponents="3" format="ascii">
                       0.05423                      -0.78288                       0.61981
                       0.05421                      -0.78297                       0.61969
                       0.05418                      -0.78322                       0.61938
                       0.05414                      -0.78353                       0.61899
                       0.05411                      -0.78398                       0.61842
                       0.05413                      -0.78456                       0.61768
                       0.05419                      -0.78515                       0.61692
                       0.05429                      -0.78572                       0.61620
                       0.05438                      -0.78624                       0.61552
                       0.05443                      -0.78671                       0.61492
                       0.05439                      -0.78712                       0.61440
                       0.05424                      -0.78747                       0.61396
                       0.05394                      -0.78778                       0.61359
                       0.05349                      -0.78803                       0.61330
                       0.05292                      -0.78825                       0.61308
                       0.05240                      -0.78839                       0.61294
                       0.05197                      -0.78847                       0.61287
                       0.05159                      -0.78852                       0.61284
                       0.05143                      -0.78853                       0.61284
        </DataArray>
        <DataArray type="Float32" Name="OrientationZ" NumberOfComponents="3" format="ascii">
                      -0.11162                      -0.62158                      -0.77536
                      -0.11142                      -0.62147                      -0.77547
                      -0.11080                      -0.62118                      -0.77580
                      -0.10987                      -0.62081                      -0.77622
                      -0.10835                      -0.62028                      -0.77686
                      -0.10597                      -0.61961                      -0.77773
                      -0.10295                      -0.61893                      -0.77867
                      -0.09924                      -0.61830                      -0.77965
                      -0.09476                      -0.61772                      -0.78067
                      -0.08947                      -0.61720                      -0.78170
                      -0.08334                      -0.61674                      -0.78274
                      -0.07644                      -0.61633                      -0.78377
                      -0.06892                      -0.61596                      -0.78476
                      -0.06105                      -0.61561                      -0.78568
                      -0.05324                      -0.61529                      -0.78650
                      -0.04716                      -0.61506                      -0.78707
                      -0.04290                      -0.61490                      -0.78744
                      -0.03947                      -0.61479                      -0.78770
                      -0.03816                      -0.61475                      -0.78780
        </DataArray>
        <DataArray type="Float32" Name="Force" NumberOfComponents="3" format="ascii">
                       0.13908                      -2.00801                       1.58974
                     130.58466                     -29.37848                       4.78750
                     164.15757                     -51.90792                      18.16096
                     136.14990                     -53.59171                      23.67606
                    1199.43612                      67.25883                    -221.27595
                    1192.87326                      54.84879                    -206.60449
                    1319.69345                      63.31586                    -225.36647
                    1201.50937                      50.85553                    -193.82662
                    1104.70162                      34.46360                    -161.83517
                    1170.84968                      46.56289                    -171.39395
                    1173.74636                      68.60743                    -179.91564
                    1339.05255                     136.91295                    -239.99975
                    1613.61534                     219.77565                    -317.06050
                    1827.55735                     275.66497                    -361.62930
                    1952.10916                     303.26761                    -373.40646
                    1987.46954                     309.49634                    -365.02206
                    1940.57735                     301.46461                    -345.08092
                    1430.87795                     222.00638                    -247.84867
                     437.57065                       3.42874                     -23.79951
        </DataArray>
        <DataArray type="Float32" Name="Moment" NumberOfComponents="3" format="ascii">
                       0.00000                       0.00000                       0.00000
                       0.00000                       0.00000                       0.00000
                       0.00000                       0.00000                       0.00000
                       0.00000                       0.00000                       0.00000
                      78.86145                     452.87302                     565.12686
                      84.99605                     499.36267                     623.31147
                      81.60054                     493.78233                     616.55998
                      79.76706                     501.08047                     625.93871
                      73.30258                     482.58158                     603.13824
                      65.26836                     455.48218                     569.61174
                      49.57585                     371.70937                     465.17077
                      40.85305                     334.24476                     418.61217
                      32.23804                     292.81984                     367.04185
                      25.83195                     265.17807                     332.68784
                      19.80376                     233.43093                     293.11526
                      16.35404                     217.89619                     273.79505
                      13.49926                     197.93262                     248.82872
                       6.18457                      98.66250                     124.08005
                       5.27436                      87.06973                     109.51679
        </DataArray>
      </PointData>
      <Lines>
        <DataArray type="Int32" Name="connectivity" format="ascii">
      0      1
      1      2
      2      3
      3      4
      4      5
      5      6
      6      7
      7      8
      8      9
      9     10
     10     11
     11     12
     12     13
     13     14
     14     15
     15     16
     16     17
     17     18
        </DataArray>
        <DataArray type="Int32" Name="offsets" format="ascii">
      2
      4
      6
      8
     10
     12
     14
     16
     18
     20
     22
     24
     26
     28
     30
     32
     34
     36
        </DataArray>
      </Lines>
    </Piece>
  </PolyData>
</VTKFile>
