<?xml version="1.0"?>
<VTKFile type="PolyData" version="0.1" byte_order="LittleEndian">
  <PolyData>
    <Piece NumberOfPoints="     19" NumberOfVerts="  0" NumberOfLines="     18"
           NumberOfStrips="  0" NumberOfPolys="      0">
      <Points>
        <DataArray type="Float32" NumberOfComponents="3" format="ascii">
                      -4.97899                       1.12591                      90.99090
                      -4.96038                       2.14959                      91.89623
                      -4.93785                       4.13424                      93.77840
                      -4.92082                       6.08985                      95.69393
                      -4.90032                       8.51807                      98.10754
                      -4.82542                      11.53002                     100.89132
                      -4.72519                      14.63050                     103.57343
                      -4.61453                      17.73466                     106.25085
                      -4.48805                      20.84354                     108.92203
                      -4.34322                      23.95561                     111.58847
                      -4.17796                      27.06811                     114.25306
                      -3.98876                      30.18169                     116.91466
                      -3.77377                      33.29602                     119.57336
                      -3.53183                      36.41076                     122.22922
                      -3.26007                      39.52553                     124.88211
                      -3.01004                      42.12106                     127.09040
                      -2.79642                      44.20246                     128.84945
                      -2.57514                      46.31980                     130.56563
                      -2.45777                      47.35103                     131.45444
        </DataArray>
      </Points>
      <PointData>
        <DataArray type="Float32" Name="TranslationalVelocity" NumberOfComponents="3" format="ascii">
                       0.05138                      -0.51782                       0.58728
                       0.09811                      -0.99094                       1.12128
                       0.18871                      -1.97397                       2.15672
                       0.27803                      -2.97438                       3.17722
                       0.38902                      -4.23520                       4.44464
                       0.52684                      -5.69220                       6.01716
                       0.66889                      -7.09770                       7.63638
                       0.81127                      -8.50158                       9.25795
                       0.95398                      -9.90323                      10.88236
                       1.09686                     -11.30347                      12.50870
                       1.23970                     -12.70383                      14.13546
                       1.38243                     -14.10383                      15.76292
                       1.52490                     -15.50352                      17.39085
                       1.66698                     -16.90298                      19.01905
                       1.80853                     -18.30228                      20.64737
                       1.92595                     -19.46819                      22.00437
                       2.01976                     -20.39763                      23.09270
                       2.11500                     -21.30510                      24.19996
                       2.16109                     -21.77524                      24.73935
        </DataArray>
        <DataArray type="Float32" Name="RotationalVelocity" NumberOfComponents="3" format="ascii">
                       0.52161                      -0.00000                      -0.04563
                       0.52164                       0.00000                      -0.04564
                       0.52174                       0.00001                      -0.04565
                       0.52184                       0.00001                      -0.04568
                       0.52198                       0.00001                      -0.04572
                       0.52215                       0.00001                      -0.04578
                       0.52230                      -0.00002                      -0.04586
                       0.52242                      -0.00008                      -0.04596
                       0.52252                      -0.00018                      -0.04608
                       0.52258                      -0.00033                      -0.04621
                       0.52262                      -0.00054                      -0.04636
                       0.52264                      -0.00080                      -0.04653
                       0.52264                      -0.00112                      -0.04669
                       0.52264                      -0.00149                      -0.04685
                       0.52264                      -0.00187                      -0.04698
                       0.52263                      -0.00219                      -0.04707
                       0.52264                      -0.00242                      -0.04710
                       0.52264                      -0.00262                      -0.04711
                       0.52265                      -0.00270                      -0.04709
        </DataArray>
        <DataArray type="Float32" Name="TranslationalAcceleration" NumberOfComponents="3" format="ascii">
                      -0.02363                      -0.30867                      -0.27010
                      -0.02866                      -0.37263                      -0.32737
                      -0.08457                      -1.04863                      -0.95676
                      -0.13817                      -1.65979                      -1.54726
                      -0.20318                      -2.36469                      -2.24636
                      -0.27659                      -3.18729                      -3.01780
                      -0.34660                      -4.00897                      -3.74716
                      -0.41590                      -4.82586                      -4.47790
                      -0.48461                      -5.64863                      -5.21875
                      -0.55329                      -6.48030                      -5.97279
                      -0.62349                      -7.31852                      -6.73876
                      -0.69819                      -8.15885                      -7.51146
                      -0.78250                      -8.99557                      -8.28485
                      -0.88423                      -9.82388                      -9.05356
                      -1.01445                     -10.64196                      -9.81465
                      -1.15636                     -11.31786                     -10.44364
                      -1.29818                     -11.85973                     -10.94422
                      -1.47079                     -12.41688                     -11.43700
                      -1.57315                     -12.69123                     -11.69426
        </DataArray>
        <DataArray type="Float32" Name="OrientationX" NumberOfComponents="3" format="ascii">
                       0.99776                       0.03277                      -0.05840
                       0.99775                       0.03263                      -0.05852
                       0.99774                       0.03219                      -0.05891
                       0.99773                       0.03155                      -0.05948
                       0.99771                       0.03049                      -0.06043
                       0.99767                       0.02883                      -0.06190
                       0.99761                       0.02673                      -0.06376
                       0.99752                       0.02415                      -0.06605
                       0.99741                       0.02103                      -0.06883
                       0.99724                       0.01734                      -0.07215
                       0.99702                       0.01307                      -0.07603
                       0.99673                       0.00827                      -0.08044
                       0.99635                       0.00303                      -0.08531
                       0.99590                      -0.00245                      -0.09048
                       0.99538                      -0.00791                      -0.09571
                       0.99493                      -0.01218                      -0.09986
                       0.99458                      -0.01520                      -0.10286
                       0.99427                      -0.01765                      -0.10539
                       0.99415                      -0.01861                      -0.10642
        </DataArray>
        <DataArray type="Float32" Name="OrientationY" NumberOfComponents="3" format="ascii">
                      -0.06548                       0.65994                      -0.74846
                      -0.06548                       0.65984                      -0.74854
                      -0.06549                       0.65960                      -0.74876
                      -0.06551                       0.65930                      -0.74902
                      -0.06552                       0.65888                      -0.74939
                      -0.06555                       0.65836                      -0.74984
                      -0.06558                       0.65786                      -0.75028
                      -0.06562                       0.65740                      -0.75068
                      -0.06568                       0.65701                      -0.75101
                      -0.06577                       0.65670                      -0.75128
                      -0.06591                       0.65645                      -0.75148
                      -0.06611                       0.65628                      -0.75162
                      -0.06636                       0.65615                      -0.75170
                      -0.06668                       0.65607                      -0.75175
                      -0.06707                       0.65601                      -0.75176
                      -0.06742                       0.65598                      -0.75176
                      -0.06773                       0.65595                      -0.75176
                      -0.06804                       0.65593                      -0.75175
                      -0.06819                       0.65592                      -0.75174
        </DataArray>
        <DataArray type="Float32" Name="OrientationZ" NumberOfComponents="3" format="ascii">
                       0.01401                       0.75061                       0.66060
                       0.01419                       0.75069                       0.66050
                       0.01475                       0.75093                       0.66022
                       0.01559                       0.75122                       0.65987
                       0.01697                       0.75163                       0.65937
                       0.01913                       0.75215                       0.65871
                       0.02189                       0.75267                       0.65803
                       0.02529                       0.75315                       0.65736
                       0.02943                       0.75359                       0.65669
                       0.03435                       0.75396                       0.65603
                       0.04008                       0.75425                       0.65536
                       0.04657                       0.75448                       0.65467
                       0.05370                       0.75462                       0.65396
                       0.06121                       0.75470                       0.65321
                       0.06874                       0.75471                       0.65245
                       0.07467                       0.75468                       0.65183
                       0.07890                       0.75465                       0.65137
                       0.08240                       0.75461                       0.65098
                       0.08379                       0.75460                       0.65082
        </DataArray>
        <DataArray type="Float32" Name="Force" NumberOfComponents="3" format="ascii">
                       0.00000                      -0.00001                       0.00001
                     156.11697                      11.25223                     -16.14012
                     172.32079                      26.03542                     -33.44186
                     133.95796                      30.87077                     -38.25679
                    1086.29019                     -39.51287                      16.85385
                    1136.90217                     -32.36872                       3.62460
                    1290.73213                     -40.17917                       2.55018
                    1208.49622                     -32.95717                      -9.22292
                    1138.66212                     -19.61381                     -28.91143
                    1206.59771                     -26.33461                     -33.38667
                    1168.55795                     -16.00782                     -53.37989
                    1236.92982                     -36.47436                     -46.48267
                    1365.70204                    -109.62544                      13.04724
                    1544.28423                    -157.46559                      35.40771
                    1735.96316                    -205.77815                      52.83502
                    1909.03778                    -252.06685                      70.37019
                    1932.55895                    -265.26507                      70.34352
                    1458.21634                    -203.77786                      49.43854
                     411.41017                      -4.53485                     -47.66297
        </DataArray>
        <DataArray type="Float32" Name="Moment" NumberOfComponents="3" format="ascii">
                       0.00000                       0.00000                       0.00000
                       0.00000                       0.00000                       0.00000
                       0.00000                       0.00000                       0.00000
                       0.00000                       0.00000                       0.00000
                     -13.08926                    -575.98429                    -506.71290
                     -16.10281                    -627.37193                    -551.75887
                     -18.34870                    -624.27578                    -548.83244
                     -21.74882                    -640.09265                    -562.48104
                     -24.77453                    -626.80556                    -550.50081
                     -27.56595                    -597.81448                    -524.69452
                     -27.93057                    -519.53101                    -455.63835
                     -29.74969                    -476.62880                    -417.65138
                     -32.45839                    -451.39429                    -395.16457
                     -32.90157                    -401.65652                    -351.27091
                     -32.33062                    -351.62061                    -307.20310
                     -29.18637                    -292.27565                    -255.15242
                     -26.40282                    -250.25638                    -218.34663
                     -13.17036                    -119.53709                    -104.24624
                     -11.00097                     -98.19052                     -85.61429
        </DataArray>
      </PointData>
      <Lines>
        <DataArray type="Int32" Name="connectivity" format="ascii">
      0      1
      1      2
      2      3
      3      4
      4      5
      5      6
      6      7
      7      8
      8      9
      9     10
     10     11
     11     12
     12     13
     13     14
     14     15
     15     16
     16     17
     17     18
        </DataArray>
        <DataArray type="Int32" Name="offsets" format="ascii">
      2
      4
      6
      8
     10
     12
     14
     16
     18
     20
     22
     24
     26
     28
     30
     32
     34
     36
        </DataArray>
      </Lines>
    </Piece>
  </PolyData>
</VTKFile>
