<?xml version="1.0"?>
<VTKFile type="PolyData" version="0.1" byte_order="LittleEndian">
  <PolyData>
    <Piece NumberOfPoints="     19" NumberOfVerts="  0" NumberOfLines="     18"
           NumberOfStrips="  0" NumberOfPolys="      0">
      <Points>
        <DataArray type="Float32" NumberOfComponents="3" format="ascii">
                      -5.18097                       0.69324                      88.68218
                      -5.34646                       1.32783                      87.48306
                      -5.69420                       2.68015                      85.13092
                      -6.04827                       4.07158                      82.80006
                      -6.49184                       5.83391                      79.89832
                      -6.96967                       7.82180                      76.34203
                      -7.41785                       9.69366                      72.72092
                      -7.85414                      11.56213                      69.09659
                      -8.27294                      13.42583                      65.46776
                      -8.67165                      15.28666                      61.83522
                      -9.04820                      17.14804                      58.20070
                      -9.39905                      19.00885                      54.56337
                      -9.72246                      20.86922                      50.92331
                     -10.01745                      22.72923                      47.28067
                     -10.28146                      24.58896                      43.63554
                     -10.47731                      26.13839                      40.59618
                     -10.62005                      27.37057                      38.16022
                     -10.75385                      28.55345                      35.69846
                     -10.81511                      29.18167                      34.48655
        </DataArray>
      </Points>
      <PointData>
        <DataArray type="Float32" Name="TranslationalVelocity" NumberOfComponents="3" format="ascii">
                       0.03164                       0.69565                       0.36160
                       0.06058                       1.32852                       0.69253
                       0.12238                       2.57033                       1.39736
                       0.18609                       3.80037                       2.12191
                       0.26698                       5.33021                       3.03845
                       0.35868                       7.19955                       4.07059
                       0.44578                       9.09815                       5.04071
                       0.53373                      10.99475                       6.00739
                       0.62288                      12.88993                       6.97000
                       0.71377                      14.78340                       7.92962
                       0.80708                      16.67453                       8.88818
                       0.90330                      18.56394                       9.84527
                       1.00300                      20.45190                      10.80114
                       1.10675                      22.33859                      11.75600
                       1.21512                      24.22414                      12.71005
                       1.30944                      25.79455                      13.50449
                       1.38727                      27.05213                      14.13603
                       1.46541                      28.32219                      14.74204
                       1.50721                      28.94705                      15.06386
        </DataArray>
        <DataArray type="Float32" Name="RotationalVelocity" NumberOfComponents="3" format="ascii">
                       0.52161                      -0.00000                      -0.04563
                       0.52148                      -0.00002                      -0.04563
                       0.52113                      -0.00006                      -0.04561
                       0.52069                      -0.00012                      -0.04560
                       0.52005                      -0.00022                      -0.04560
                       0.51921                      -0.00038                      -0.04562
                       0.51836                      -0.00057                      -0.04569
                       0.51753                      -0.00082                      -0.04582
                       0.51677                      -0.00113                      -0.04604
                       0.51608                      -0.00152                      -0.04635
                       0.51548                      -0.00202                      -0.04678
                       0.51495                      -0.00263                      -0.04731
                       0.51450                      -0.00337                      -0.04793
                       0.51412                      -0.00424                      -0.04859
                       0.51382                      -0.00523                      -0.04924
                       0.51361                      -0.00615                      -0.04971
                       0.51349                      -0.00694                      -0.04998
                       0.51341                      -0.00777                      -0.05013
                       0.51339                      -0.00819                      -0.05014
        </DataArray>
        <DataArray type="Float32" Name="TranslationalAcceleration" NumberOfComponents="3" format="ascii">
                       0.03175                      -0.19006                       0.36285
                       0.03852                      -0.23035                       0.43827
                       0.10818                      -0.68048                       1.24209
                       0.17037                      -1.10441                       1.97477
                       0.24064                      -1.60398                       2.82593
                       0.31905                      -2.13276                       3.81059
                       0.39311                      -2.60819                       4.78578
                       0.46139                      -3.07310                       5.75907
                       0.52189                      -3.53373                       6.74322
                       0.57034                      -3.99307                       7.74230
                       0.60028                      -4.45159                       8.75433
                       0.60323                      -4.90666                       9.77432
                       0.56859                      -5.35533                      10.79597
                       0.48381                      -5.79515                      11.81417
                       0.33442                      -6.22528                      12.82728
                       0.14728                      -6.57743                      13.67057
                      -0.04837                      -6.85523                      14.34958
                      -0.28670                      -7.12088                      15.04362
                      -0.42866                      -7.26547                      15.39234
        </DataArray>
        <DataArray type="Float32" Name="OrientationX" NumberOfComponents="3" format="ascii">
                       0.99188                       0.02018                      -0.12560
                       0.99190                       0.02008                      -0.12542
                       0.99198                       0.01978                      -0.12484
                       0.99209                       0.01933                      -0.12401
                       0.99228                       0.01859                      -0.12262
                       0.99256                       0.01746                      -0.12046
                       0.99292                       0.01602                      -0.11774
                       0.99333                       0.01424                      -0.11442
                       0.99381                       0.01208                      -0.11044
                       0.99434                       0.00947                      -0.10578
                       0.99492                       0.00640                      -0.10044
                       0.99552                       0.00288                      -0.09448
                       0.99612                      -0.00101                      -0.08802
                       0.99668                      -0.00514                      -0.08131
                       0.99716                      -0.00929                      -0.07469
                       0.99750                      -0.01255                      -0.06954
                       0.99771                      -0.01484                      -0.06595
                       0.99787                      -0.01669                      -0.06305
                       0.99793                      -0.01739                      -0.06194
        </DataArray>
        <DataArray type="Float32" Name="OrientationY" NumberOfComponents="3" format="ascii">
                      -0.04032                      -0.88657                      -0.46084
                      -0.04031                      -0.88660                      -0.46078
                      -0.04029                      -0.88668                      -0.46062
                      -0.04027                      -0.88679                      -0.46042
                      -0.04024                      -0.88693                      -0.46015
                      -0.04021                      -0.88710                      -0.45982
                      -0.04017                      -0.88727                      -0.45950
                      -0.04017                      -0.88742                      -0.45922
                      -0.04022                      -0.88754                      -0.45898
                      -0.04035                      -0.88763                      -0.45878
                      -0.04059                      -0.88770                      -0.45863
                      -0.04094                      -0.88775                      -0.45851
                      -0.04141                      -0.88778                      -0.45841
                      -0.04197                      -0.88779                      -0.45833
                      -0.04259                      -0.88779                      -0.45826
                      -0.04311                      -0.88780                      -0.45821
                      -0.04349                      -0.88780                      -0.45817
                      -0.04379                      -0.88780                      -0.45813
                      -0.04391                      -0.88781                      -0.45812
        </DataArray>
        <DataArray type="Float32" Name="OrientationZ" NumberOfComponents="3" format="ascii">
                      -0.12065                       0.46216                      -0.87855
                      -0.12045                       0.46210                      -0.87861
                      -0.11981                       0.46195                      -0.87877
                      -0.11887                       0.46178                      -0.87900
                      -0.11731                       0.46153                      -0.87933
                      -0.11489                       0.46124                      -0.87981
                      -0.11183                       0.46097                      -0.88034
                      -0.10808                       0.46075                      -0.88093
                      -0.10356                       0.46058                      -0.88156
                      -0.09824                       0.46046                      -0.88223
                      -0.09209                       0.46037                      -0.88293
                      -0.08519                       0.46032                      -0.88366
                      -0.07768                       0.46028                      -0.88437
                      -0.06983                       0.46022                      -0.88505
                      -0.06205                       0.46015                      -0.88567
                      -0.05599                       0.46006                      -0.88612
                      -0.05175                       0.45999                      -0.88641
                      -0.04833                       0.45992                      -0.88664
                      -0.04702                       0.45989                      -0.88673
        </DataArray>
        <DataArray type="Float32" Name="Force" NumberOfComponents="3" format="ascii">
                      -0.00131                      -0.02874                      -0.01494
                     119.85241                      -2.24856                     -17.61348
                     144.53962                     -17.16590                     -28.73583
                     118.39186                     -27.56446                     -30.50902
                     977.95412                     106.66603                     -74.39567
                    1037.83801                      98.67736                     -83.67540
                    1177.23896                     111.04111                     -91.22064
                    1192.54324                     128.52239                     -78.82522
                    1117.00934                      98.53423                     -79.51548
                    1178.80214                     101.56781                     -77.98659
                    1189.69145                     114.84380                     -63.87691
                    1354.43528                     174.49551                     -39.13072
                    1625.49255                     245.46808                     -14.21316
                    1765.56734                     280.88063                       7.71774
                    1875.09062                     289.37165                      20.01115
                    1911.52079                     281.12006                      26.20621
                    1883.76377                     267.22395                      29.70805
                    1388.56850                     190.47756                      23.85277
                     419.94111                     -11.15166                     -28.07319
        </DataArray>
        <DataArray type="Float32" Name="Moment" NumberOfComponents="3" format="ascii">
                       0.00000                       0.00000                       0.00000
                       0.00000                       0.00000                       0.00000
                       0.00000                       0.00000                       0.00000
                       0.00000                       0.00000                       0.00000
                      81.34983                    -320.61405                     609.68297
                      86.64414                    -348.76136                     663.36980
                      83.09946                    -343.73492                     654.01003
                      86.43549                    -370.04406                     704.33190
                      81.56840                    -364.52335                     694.13693
                      75.33202                    -354.99146                     676.34501
                      61.91938                    -311.32274                     593.50820
                      53.51584                    -290.92899                     555.00974
                      42.47107                    -253.24893                     483.48679
                      28.77018                    -190.86443                     364.66961
                      22.27891                    -166.36224                     318.10000
                      19.00692                    -157.29462                     300.94189
                      15.94411                    -142.77769                     273.28205
                       7.52277                     -72.13655                     138.11878
                       6.17579                     -60.87006                     116.56204
        </DataArray>
      </PointData>
      <Lines>
        <DataArray type="Int32" Name="connectivity" format="ascii">
      0      1
      1      2
      2      3
      3      4
      4      5
      5      6
      6      7
      7      8
      8      9
      9     10
     10     11
     11     12
     12     13
     13     14
     14     15
     15     16
     16     17
     17     18
        </DataArray>
        <DataArray type="Int32" Name="offsets" format="ascii">
      2
      4
      6
      8
     10
     12
     14
     16
     18
     20
     22
     24
     26
     28
     30
     32
     34
     36
        </DataArray>
      </Lines>
    </Piece>
  </PolyData>
</VTKFile>
