<?xml version="1.0"?>
<VTKFile type="PolyData" version="0.1" byte_order="LittleEndian">
  <PolyData>
    <Piece NumberOfPoints="     19" NumberOfVerts="  0" NumberOfLines="     18"
           NumberOfStrips="  0" NumberOfPolys="      0">
      <Points>
        <DataArray type="Float32" NumberOfComponents="3" format="ascii">
                      -5.06327                      -1.49841                      90.02759
                      -5.12197                      -2.86370                      90.04906
                      -5.26835                      -5.59462                      89.99814
                      -5.42687                      -8.32571                      89.90125
                      -5.62962                     -11.73971                      89.75034
                      -5.80035                     -15.83699                      89.70138
                      -5.92504                     -19.93424                      89.77305
                      -6.03760                     -24.03201                      89.84036
                      -6.13196                     -28.13041                      89.90490
                      -6.20548                     -32.22939                      89.96500
                      -6.25625                     -36.32887                      90.01742
                      -6.28021                     -40.42872                      90.06397
                      -6.27528                     -44.52875                      90.10514
                      -6.24021                     -48.62874                      90.14140
                      -6.17220                     -52.72840                      90.17287
                      -6.08970                     -56.14429                      90.19558
                      -6.00766                     -58.87642                      90.21956
                      -5.90851                     -61.60790                      90.29660
                      -5.85838                     -62.97339                      90.29294
        </DataArray>
      </Points>
      <PointData>
        <DataArray type="Float32" Name="TranslationalVelocity" NumberOfComponents="3" format="ascii">
                      -0.06838                      -0.01150                      -0.78158
                      -0.13068                      -0.02003                      -1.49371
                      -0.25525                       0.01318                      -2.91803
                      -0.37978                       0.07089                      -4.34227
                      -0.53534                       0.15874                      -6.12234
                      -0.72182                       0.19190                      -8.25818
                      -0.90805                       0.16006                     -10.39340
                      -1.09402                       0.12995                     -12.52826
                      -1.27974                       0.10046                     -14.66281
                      -1.46523                       0.07236                     -16.79703
                      -1.65055                       0.04724                     -18.93092
                      -1.83575                       0.02397                     -21.06445
                      -2.02094                       0.00221                     -23.19757
                      -2.20623                      -0.01834                     -25.33023
                      -2.39180                      -0.03787                     -27.46233
                      -2.54679                      -0.05349                     -29.23855
                      -2.67108                      -0.06972                     -30.65907
                      -2.79577                      -0.11431                     -32.07914
                      -2.85823                      -0.11469                     -32.78901
        </DataArray>
        <DataArray type="Float32" Name="RotationalVelocity" NumberOfComponents="3" format="ascii">
                       0.52161                       0.00000                      -0.04563
                       0.52159                       0.00000                      -0.04563
                       0.52154                      -0.00000                      -0.04561
                       0.52147                      -0.00000                      -0.04559
                       0.52137                      -0.00001                      -0.04555
                       0.52123                      -0.00003                      -0.04550
                       0.52108                      -0.00007                      -0.04543
                       0.52093                      -0.00013                      -0.04537
                       0.52078                      -0.00020                      -0.04530
                       0.52064                      -0.00030                      -0.04525
                       0.52051                      -0.00041                      -0.04521
                       0.52039                      -0.00053                      -0.04519
                       0.52029                      -0.00065                      -0.04519
                       0.52019                      -0.00075                      -0.04524
                       0.52011                      -0.00083                      -0.04532
                       0.52005                      -0.00086                      -0.04542
                       0.52001                      -0.00085                      -0.04552
                       0.51999                      -0.00080                      -0.04565
                       0.51997                      -0.00076                      -0.04573
        </DataArray>
        <DataArray type="Float32" Name="TranslationalAcceleration" NumberOfComponents="3" format="ascii">
                      -0.00052                       0.41080                      -0.00600
                      -0.00053                       0.49674                      -0.00594
                       0.00083                       1.42133                       0.01133
                       0.00348                       2.27090                       0.04551
                       0.00773                       3.26153                       0.10271
                       0.00976                       4.38643                       0.14327
                       0.00882                       5.48161                       0.16086
                       0.00773                       6.57297                       0.19061
                       0.00618                       7.67436                       0.23188
                       0.00394                       8.79015                       0.28481
                       0.00086                       9.91791                       0.34975
                      -0.00329                      11.05122                       0.42543
                      -0.00862                      12.18229                       0.51077
                      -0.01513                      13.30471                       0.60451
                      -0.02269                      14.41613                       0.70531
                      -0.02956                      15.33679                       0.79370
                      -0.03551                      16.07465                       0.86432
                      -0.04344                      16.82195                       0.92140
                      -0.04573                      17.20013                       0.96155
        </DataArray>
        <DataArray type="Float32" Name="OrientationX" NumberOfComponents="3" format="ascii">
                       0.99530                      -0.04361                      -0.08644
                       0.99531                      -0.04340                      -0.08645
                       0.99534                      -0.04274                      -0.08647
                       0.99537                      -0.04177                      -0.08652
                       0.99543                      -0.04017                      -0.08663
                       0.99551                      -0.03767                      -0.08685
                       0.99560                      -0.03450                      -0.08715
                       0.99569                      -0.03061                      -0.08751
                       0.99579                      -0.02590                      -0.08790
                       0.99589                      -0.02032                      -0.08826
                       0.99598                      -0.01385                      -0.08853
                       0.99604                      -0.00655                      -0.08868
                       0.99606                       0.00143                      -0.08865
                       0.99603                       0.00980                      -0.08842
                       0.99596                       0.01813                      -0.08800
                       0.99586                       0.02465                      -0.08751
                       0.99578                       0.02924                      -0.08705
                       0.99570                       0.03297                      -0.08655
                       0.99567                       0.03441                      -0.08631
        </DataArray>
        <DataArray type="Float32" Name="OrientationY" NumberOfComponents="3" format="ascii">
                       0.08715                       0.01466                       0.99609
                       0.08714                       0.01443                       0.99609
                       0.08713                       0.01383                       0.99610
                       0.08713                       0.01307                       0.99611
                       0.08717                       0.01198                       0.99612
                       0.08730                       0.01056                       0.99613
                       0.08751                       0.00914                       0.99612
                       0.08779                       0.00778                       0.99611
                       0.08810                       0.00653                       0.99609
                       0.08838                       0.00542                       0.99607
                       0.08860                       0.00445                       0.99606
                       0.08870                       0.00362                       0.99605
                       0.08864                       0.00292                       0.99606
                       0.08840                       0.00233                       0.99608
                       0.08798                       0.00185                       0.99612
                       0.08750                       0.00152                       0.99616
                       0.08704                       0.00133                       0.99620
                       0.08656                       0.00120                       0.99625
                       0.08632                       0.00117                       0.99627
        </DataArray>
        <DataArray type="Float32" Name="OrientationZ" NumberOfComponents="3" format="ascii">
                      -0.04218                      -0.99894                       0.01839
                      -0.04199                      -0.99895                       0.01815
                      -0.04138                      -0.99899                       0.01749
                      -0.04048                      -0.99904                       0.01665
                      -0.03897                      -0.99912                       0.01542
                      -0.03661                      -0.99923                       0.01380
                      -0.03357                      -0.99936                       0.01212
                      -0.02981                      -0.99950                       0.01043
                      -0.02522                      -0.99964                       0.00879
                      -0.01976                      -0.99978                       0.00720
                      -0.01340                      -0.99989                       0.00566
                      -0.00620                      -0.99997                       0.00419
                       0.00168                      -0.99999                       0.00278
                       0.00996                      -0.99995                       0.00146
                       0.01822                      -0.99983                       0.00024
                       0.02468                      -0.99970                      -0.00064
                       0.02924                      -0.99957                      -0.00122
                       0.03295                      -0.99946                      -0.00166
                       0.03438                      -0.99941                      -0.00181
        </DataArray>
        <DataArray type="Float32" Name="Force" NumberOfComponents="3" format="ascii">
                       0.31674                       0.05328                       3.62033
                     160.44847                      -6.37448                      19.91119
                     181.84275                      -6.72155                      43.48195
                     144.81168                      -4.91745                      50.93720
                    1232.29459                     -52.05372                    -235.75597
                    1241.01885                     -48.94357                    -219.06633
                    1386.52045                     -50.22307                    -244.32012
                    1277.31565                     -41.00459                    -212.45220
                    1184.87633                     -32.01124                    -174.67616
                    1257.21657                     -26.93356                    -188.77891
                    1232.59323                     -18.34198                    -184.34916
                    1379.00611                     -11.32315                    -269.71735
                    1586.56644                      -1.37910                    -391.15874
                    1828.56210                      13.45201                    -489.56925
                    2011.91408                      31.64220                    -558.44924
                    2096.91179                      46.91766                    -582.68976
                    2068.57669                      56.03126                    -570.89413
                    1508.33462                      46.68472                    -409.56075
                     443.24276                      15.39317                     -32.46641
        </DataArray>
        <DataArray type="Float32" Name="Moment" NumberOfComponents="3" format="ascii">
                       0.00000                       0.00000                       0.00000
                       0.00000                       0.00000                       0.00000
                       0.00000                       0.00000                       0.00000
                       0.00000                       0.00000                       0.00000
                      29.27181                     754.88492                     -13.67121
                      30.36298                     836.90888                     -14.97389
                      27.76157                     838.25294                     -14.76608
                      25.21876                     862.80351                     -14.90494
                      20.62285                     840.70505                     -14.17761
                      15.25394                     804.36038                     -13.17298
                       8.36794                     668.58956                     -10.57228
                       3.21030                     612.33150                      -9.29305
                      -1.55915                     577.22780                      -8.35913
                      -5.27778                     478.12432                      -6.57520
                      -8.35338                     431.85705                      -5.62517
                      -9.66762                     374.18711                      -4.66141
                     -10.10989                     332.40484                      -4.00777
                      -5.68079                     166.41365                      -1.95224
                      -5.13205                     144.24544                      -1.67398
        </DataArray>
      </PointData>
      <Lines>
        <DataArray type="Int32" Name="connectivity" format="ascii">
      0      1
      1      2
      2      3
      3      4
      4      5
      5      6
      6      7
      7      8
      8      9
      9     10
     10     11
     11     12
     12     13
     13     14
     14     15
     15     16
     16     17
     17     18
        </DataArray>
        <DataArray type="Int32" Name="offsets" format="ascii">
      2
      4
      6
      8
     10
     12
     14
     16
     18
     20
     22
     24
     26
     28
     30
     32
     34
     36
        </DataArray>
      </Lines>
    </Piece>
  </PolyData>
</VTKFile>
